<?xml version="1.0" encoding="UTF-8"?>
<!-- Generator: Adobe Illustrator 10.0, SVG Export Plug-In . SVG Version: 3.0.0 Build 77)  -->
<svg id="svg2" width="135.98" height="32" enable-background="new 0 0 108.758 144.133" overflow="visible" version="1.0" viewBox="0 0 102.6 42.408" xml:space="preserve" xmlns="http://www.w3.org/2000/svg" xmlns:cc="http://creativecommons.org/ns#" xmlns:dc="http://purl.org/dc/elements/1.1/" xmlns:rdf="http://www.w3.org/1999/02/22-rdf-syntax-ns#">
	<metadata id="metadata4">
		
		
	<rdf:RDF><cc:Work rdf:about=""><dc:format>image/svg+xml</dc:format><dc:type rdf:resource="http://purl.org/dc/dcmitype/StillImage"/></cc:Work></rdf:RDF></metadata>
	
<g id="g2414" transform="translate(-10.739 -74.268)"><g id="g1" transform="translate(-5.4653)" stroke-width="1.164"><path id="path2389" d="m-6.9568 94.997c-0.052378 0.0547-0.052378 8.7366-0.16062 11.003-0.10708 1.832-0.27004 5.7697-4.153 5.7697-3.9912 0-4.9619-4.5848-5.2855-6.5786-0.37712-2.2115-0.37712-4.047-0.37712-4.8537 0-2.5898 0.16179-9.8191 6.2562-9.8191 1.8344 0 2.8587 0.54124 3.6676 0.97073zm-15.64 6.3656c0 15.208 8.0906 15.208 9.2767 15.208 3.344 0 5.502-1.8344 6.418-5.0154l0.10825 4.799c1.0254-0.0547 2.0497-0.16179 3.7211-0.16179 0.59361 0 1.0778 0 1.5108 0.0547 0.43182 0 0.86249 0.0524 1.3479 0.10708-0.86249-1.725-1.5096-5.6079-1.5096-14.024 0-8.1977 0-22.058 0.7007-26.266-1.9403 0.91836-3.6141 1.512-7.2817 1.8344 1.4561 1.5643 1.4561 2.3733 1.4561 9.4908-1.0231-0.32241-2.3186-0.7007-4.5301-0.7007-9.6538 0.0012-11.218 8.4153-11.218 14.674" fill="#b3b3b3"/><path id="path2391" d="m6.6533 98.609c0.054706-4.4765 0.9719-8.4677 4.8001-8.4677 4.2077 0 4.5289 4.6372 4.4218 8.4677zm14.561 0.54124c0-6.3109-1.2396-12.515-9.222-12.515-11.002 0-11.002 12.192-11.002 14.779 0 10.948 4.9072 15.263 13.16 15.263 3.6653 0 5.4473-0.53658 6.418-0.80894-0.05354-1.9415 0.21533-3.1822 0.54124-4.8537-1.1348 0.70302-2.5909 1.619-5.8267 1.619-8.4142 0-8.5224-7.6611-8.5224-10.303h14.349l0.10476-3.1799" fill="#b3b3b3"/><path id="path2393" d="m38.761 101.47c0 5.0154-0.91603 11.758-7.1722 11.758-0.86365 0-1.9415-0.16412-2.6422-0.32474-0.10825-1.9415-0.10825-5.2855-0.10825-9.1684 0-4.6395 0.4842-7.0628 0.86365-8.2524 1.1314-3.8282 3.6664-3.8806 4.1506-3.8806 4.0994 0 4.9084 5.6626 4.9084 9.868zm-15.478 5.8791c0 3.9923 0 6.2562-0.64716 7.9812 2.2115 0.86365 4.9607 1.3478 8.2524 1.3478 2.1033 0 8.1977 0 11.487-6.7404 1.5643-3.1287 2.1033-7.3364 2.1033-10.519 0-1.9415-0.2165-6.2015-1.7797-8.8995-1.5085-2.5328-3.9365-3.8282-6.5239-3.8282-5.1784 0-6.688 4.3148-7.4958 6.5263 0-2.7504 0.05238-12.351 0.48304-17.259-3.5046 1.6191-5.6638 1.8868-7.9812 2.1033 2.1033 0.86132 2.1033 4.4242 2.1033 16.021v13.267" fill="#b3b3b3"/><path id="path2395" d="m54.847 116.35c-1.0801-0.16179-1.8367-0.27004-3.4011-0.27004-1.7226 0-2.9122 0.10941-4.1506 0.27004 0.53891-1.0254 0.75424-1.512 0.91603-5.0154 0.21649-4.8013 0.27004-17.638-0.10708-20.335-0.27004-2.0509-0.75424-2.3733-1.5096-2.9122 4.4218-0.43182 5.6626-0.75424 7.7112-1.725-0.4295 2.371-0.48653 3.5605-0.48653 7.1722-0.10592 18.61-0.16062 20.604 1.0278 22.816" fill="#b3b3b3"/><path id="path2397" d="m72.117 101.09c-0.10708 3.3987-0.16179 5.772-1.0801 7.6588-1.1325 2.428-3.0193 3.1287-4.4218 3.1287-3.2393 0-3.9376-2.6957-3.9376-5.3379 0-5.069 4.5312-5.4496 6.5786-5.4496zm-14.833 6.6357c0 3.3987 1.0254 6.7951 4.047 8.2524 1.3479 0.59361 2.6957 0.59361 3.1287 0.59361 4.9631 0 6.6333-3.6688 7.6588-5.9338-0.05471 2.3733 0 3.8282 0.16179 5.7173 0.97073-0.0547 1.9415-0.16179 3.5605-0.16179 0.91603 0 1.7797 0.10708 2.6957 0.16179-0.59361-0.91603-0.91603-1.4573-1.0801-3.5605-0.10708-2.0486-0.10708-4.0983-0.10708-6.9569l0.05471-11.003c0-4.1006-1.0801-8.1453-9.1707-8.1453-5.3379 0-8.4654 1.6191-10.03 2.428 0.64832 1.1872 1.1872 2.2092 1.6714 4.5312 2.1056-1.8344 4.856-2.8051 7.6588-2.8051 4.4789 0 4.4789 2.9669 4.4789 7.1722-1.0254-0.05238-1.8891-0.15946-3.3463-0.15946-6.8522 0.0012-11.382 2.6398-11.382 9.8691" fill="#b3b3b3"/><path id="path2399" d="m103.18 111.02c0.0547 1.8344 0.0547 3.7758 0.80894 5.3402-1.1884-0.10708-1.8891-0.27003-4.0983-0.27003-1.2955 0-1.9962 0.10941-3.0216 0.27003 0.21417-0.70069 0.32474-0.97073 0.43182-1.8891 0.16179-1.2384 0.27004-5.3926 0.27004-6.8498v-5.8244c0-2.5351 0-6.2038-0.16412-7.497-0.10708-0.91603-0.37479-3.3964-3.5058-3.3964-3.074 0-4.0983 2.2639-4.4765 4.0983-0.4295 1.8868-0.4295 3.9376-0.4295 11.919 0.05238 6.9045 0.05238 7.5494 0.59129 9.4384-0.91603-0.10708-2.0485-0.21417-3.6664-0.21417-1.2955 0-2.158 0.0524-3.2346 0.21417 0.37712-0.86365 0.59361-1.2955 0.7007-4.3148 0.10941-2.9669 0.32474-17.53-0.16412-20.98-0.26771-2.1056-0.80894-2.5898-1.4002-3.1287 4.3695-0.2165 5.7697-0.91836 7.1199-1.6167v5.715c0.64599-1.6738 1.9938-5.3949 7.3887-5.3949 6.7428 0 6.7951 4.9084 6.8498 8.143v16.238" fill="#b3b3b3"/><path id="path2401" d="m55.302 78.733-4.4672 4.4649-4.4649-4.4649 4.4649-4.4649 4.4672 4.4649" fill="#d70751"/><path id="path2403" d="m114.1 112.11-4.4672 4.4649-4.4649-4.4649 4.4649-4.4649 4.4672 4.4649" fill="#b3b3b3"/><path id="path2425" d="m142.96 76.105c-3.5046 1.619-5.6845 1.9045-8.0019 2.121 2.1033 0.86132 2.121 4.4074 2.121 16.004v13.256c-0.0105 1.6303-0.0172 3.7406-0.0482 4.5794-0.10708 3.0193-0.34593 3.4265-0.72305 4.2902 1.0766-0.16179 1.9824-0.19282 3.2779-0.19282 1.6179 0 2.7475 0.0858 3.6635 0.19282-0.5389-1.8891-0.57428-2.5435-0.62666-9.448 0-7.9812 5e-3 -10.02 0.43384-11.906 1.5473-4.0503 6.8098-6.1662 8.0019-0.67486 0.1641 1.2931 0.14461 4.9366 0.14461 7.4717v5.8327c0 1.4573-0.0793 5.6066-0.24102 6.845-0.10708 0.91835-0.21967 1.1793-0.43384 1.88 1.0254-0.16062 1.6932-0.24102 2.9887-0.24103 2.2092 0 2.909 0.13395 4.0974 0.24103-0.75423-1.5643-0.71657-3.4681-0.77126-5.3025v-16.245c-0.0547-3.2346-0.10231-8.1465-6.845-8.1465-5.3949 0-6.7774 3.7251-7.4235 5.3989v-5.7363c0.0623-3.615 0.14905-7.5228 0.38564-10.219z" fill="#b3b3b3"/><path id="path3318" d="m115.83 109.34c-1.5701-3.4266-1.7457-6.6444-1.7163-9.361-0.042-6.2428 2.1746-10.098 7.3343-12.541 4.9378-2.3379 11.119 0.21106 12.442 0.60644-0.56655 1.4387-1.3463 3.2669-1.5307 5.1238-2.3238-2.2344-3.6718-3.4108-6.69-3.1513-5.6936 0.48958-6.9637 8.0191-5.9504 13.523 0.58568 3.1813 3.4904 8.8305 8.1866 8.7817 2.7234-0.0283 3.4167-0.57156 5.3449-2.6598-0.2703 0.71897-0.66243 3.8308-0.96364 5.9368-4.8792 1.3596-12.797 1.7265-16.456-6.2587z" fill="#b3b3b3"/></g></g></svg>
