<?xml version="1.0" encoding="UTF-8" standalone="no"?>
<!-- Created with Inkscape (http://www.inkscape.org/) -->

<svg
   width="125.89074mm"
   height="36.256199mm"
   viewBox="0 0 125.89073 36.2562"
   version="1.1"
   id="svg919"
   inkscape:version="1.3 (0e150ed6c4, 2023-07-21)"
   sodipodi:docname="deeproot-gnu-linux-logo.svg"
   inkscape:export-filename="deeproot-gnu-linux-logo.png"
   inkscape:export-xdpi="900"
   inkscape:export-ydpi="900"
   xml:space="preserve"
   xmlns:inkscape="http://www.inkscape.org/namespaces/inkscape"
   xmlns:sodipodi="http://sodipodi.sourceforge.net/DTD/sodipodi-0.dtd"
   xmlns="http://www.w3.org/2000/svg"
   xmlns:svg="http://www.w3.org/2000/svg"
   xmlns:rdf="http://www.w3.org/1999/02/22-rdf-syntax-ns#"
   xmlns:cc="http://creativecommons.org/ns#"
   xmlns:dc="http://purl.org/dc/elements/1.1/"><defs
     id="defs913" /><sodipodi:namedview
     id="base"
     pagecolor="#ffffff"
     bordercolor="#666666"
     borderopacity="1.0"
     inkscape:pageopacity="0.0"
     inkscape:pageshadow="2"
     inkscape:zoom="0.98994949"
     inkscape:cx="127.27922"
     inkscape:cy="191.42391"
     inkscape:document-units="mm"
     inkscape:current-layer="layer1"
     showgrid="false"
     fit-margin-top="5"
     fit-margin-left="5"
     fit-margin-right="5"
     fit-margin-bottom="5"
     inkscape:window-width="1754"
     inkscape:window-height="1262"
     inkscape:window-x="0"
     inkscape:window-y="0"
     inkscape:window-maximized="0"
     inkscape:showpageshadow="2"
     inkscape:pagecheckerboard="0"
     inkscape:deskcolor="#d1d1d1" /><metadata
     id="metadata916"><rdf:RDF><cc:Work
         rdf:about=""><dc:format>image/svg+xml</dc:format><dc:type
           rdf:resource="http://purl.org/dc/dcmitype/StillImage" /></cc:Work></rdf:RDF></metadata><g
     inkscape:label="Layer 1"
     inkscape:groupmode="layer"
     id="layer1"
     transform="translate(-38.233056,-13.538141)"><flowRoot
       style="font-style:normal;font-weight:normal;line-height:0.01%;font-family:'Bitstream Vera Sans';fill:#000000;fill-opacity:1;stroke:none"
       id="flowRoot7106"
       xml:space="preserve"
       transform="matrix(0.2826833,0,0,0.2826833,25.64542,17.343506)"><flowRegion
         id="flowRegion7108"><rect
           y="57.998665"
           x="489.87027"
           height="65.072319"
           width="203.2596"
           id="rect7110" /></flowRegion><flowPara
         style="font-size:40px;line-height:1.25"
         id="flowPara7112"> </flowPara></flowRoot><path
       d="m 72.851089,31.443515 q 0.384598,0 0.70231,0.06689 0.317711,0.06689 0.769197,0.250825 v -2.85941 q 0,-0.434764 0.300991,-0.719032 0.30099,-0.300991 0.852805,-0.300991 0.551816,0 0.852806,0.300991 0.30099,0.30099 0.30099,0.719032 v 8.895933 q 0,0.183938 0.06689,0.30099 0.08361,0.117051 0.250824,0.284268 0.234104,0.234103 0.234104,0.568537 0,0.50165 -0.351155,0.769197 -0.351156,0.250826 -0.735754,0.250826 -0.317712,0 -0.568537,-0.167217 -0.250826,-0.183939 -0.434763,-0.468207 -0.618703,0.334434 -1.170518,0.535094 -0.551816,0.20066 -1.18724,0.20066 -1.471508,0 -2.274148,-0.90297 Q 69.67397,38.26596 69.67397,36.794452 v -1.88955 q 0,-0.752475 0.150494,-1.371178 0.167217,-0.635422 0.535094,-1.10363 0.384599,-0.468207 0.98658,-0.719032 0.60198,-0.267547 1.504951,-0.267547 z m 1.471507,2.123652 q -0.752476,-0.217381 -1.220683,-0.217381 -0.618701,0 -0.869527,0.384598 -0.250825,0.3846 -0.250825,1.170518 v 1.88955 q 0,1.337734 1.086909,1.337734 0.50165,0 1.28757,-0.351156 -0.01672,-0.08361 -0.03344,-0.150494 0,-0.08361 0,-0.167217 z"
       style="font-weight:bold;line-height:0%;font-family:'Blogger Sans';-inkscape-font-specification:'Blogger Sans Bold';letter-spacing:-3.36312px;fill:#0044aa;stroke-width:0.153558"
       id="path1366" /><path
       d="m 81.748961,36.761009 q -0.334433,0 -0.635424,-0.01672 -0.284267,-0.03344 -0.652144,-0.08361 v 0.551814 q 0,0.434764 0.317711,0.68559 0.334433,0.250824 1.020023,0.250824 0.40132,0 0.752475,-0.08361 0.351156,-0.10033 0.752476,-0.28427 0.05016,-0.03344 0.167217,-0.06689 0.117051,-0.03344 0.334434,-0.03344 0.30099,0 0.50165,0.10033 0.20066,0.08361 0.317711,0.217383 0.117053,0.133773 0.167217,0.30099 0.05017,0.150495 0.05017,0.30099 0,0.434764 -0.351156,0.719032 -0.351155,0.284269 -0.852805,0.451486 -0.501651,0.167217 -1.053467,0.234103 -0.551814,0.06689 -0.953135,0.06689 -0.836084,0 -1.48823,-0.217382 -0.635424,-0.234104 -1.086908,-0.618702 -0.434764,-0.40132 -0.668867,-0.936414 -0.234104,-0.535093 -0.234104,-1.153796 v -2.79252 q 0,-0.635424 0.217381,-1.170517 0.234104,-0.551815 0.68559,-0.953136 0.451484,-0.40132 1.120351,-0.618702 0.668868,-0.234104 1.538395,-0.234104 1.655447,0 2.458087,0.785919 0.819362,0.785919 0.819362,2.056767 0,1.20396 -0.769197,1.872828 -0.769197,0.668867 -2.474809,0.668867 z m 0.953137,-2.658748 q 0,-0.50165 -0.267547,-0.719031 -0.250826,-0.217383 -0.735754,-0.217383 -0.60198,0 -0.919693,0.30099 -0.317711,0.28427 -0.317711,0.78592 v 0.719031 q 0.40132,0.03344 0.735754,0.05017 0.334433,0.01672 0.468207,0.01672 0.484928,0 0.752474,-0.20066 0.28427,-0.20066 0.28427,-0.735754 z"
       style="font-weight:bold;line-height:0%;font-family:'Blogger Sans';-inkscape-font-specification:'Blogger Sans Bold';letter-spacing:-3.36312px;fill:#0044aa;stroke-width:0.153558"
       id="path1368" /><path
       d="m 89.342554,36.761009 q -0.334434,0 -0.635424,-0.01672 -0.284269,-0.03344 -0.652146,-0.08361 v 0.551814 q 0,0.434764 0.317712,0.68559 0.334434,0.250824 1.020022,0.250824 0.40132,0 0.752476,-0.08361 0.351155,-0.10033 0.752475,-0.28427 0.05017,-0.03344 0.167217,-0.06689 0.117052,-0.03344 0.334433,-0.03344 0.300991,0 0.501651,0.10033 0.20066,0.08361 0.317712,0.217383 0.117051,0.133773 0.167217,0.30099 0.05016,0.150495 0.05016,0.30099 0,0.434764 -0.351154,0.719032 -0.351156,0.284269 -0.852806,0.451486 -0.501651,0.167217 -1.053465,0.234103 -0.551817,0.06689 -0.953137,0.06689 -0.836084,0 -1.488229,-0.217382 -0.635423,-0.234104 -1.086909,-0.618702 -0.434764,-0.40132 -0.668868,-0.936414 -0.234103,-0.535093 -0.234103,-1.153796 v -2.79252 q 0,-0.635424 0.217383,-1.170517 0.234103,-0.551815 0.685588,-0.953136 0.451486,-0.40132 1.120353,-0.618702 0.668867,-0.234104 1.538394,-0.234104 1.655446,0 2.458086,0.785919 0.819363,0.785919 0.819363,2.056767 0,1.20396 -0.769197,1.872828 -0.769197,0.668867 -2.474808,0.668867 z m 0.953135,-2.658748 q 0,-0.50165 -0.267547,-0.719031 -0.250825,-0.217383 -0.735754,-0.217383 -0.601981,0 -0.919692,0.30099 -0.317712,0.28427 -0.317712,0.78592 v 0.719031 q 0.40132,0.03344 0.735753,0.05017 0.334434,0.01672 0.468207,0.01672 0.48493,0 0.752477,-0.20066 0.284268,-0.20066 0.284268,-0.735754 z"
       style="font-weight:bold;line-height:0%;font-family:'Blogger Sans';-inkscape-font-specification:'Blogger Sans Bold';letter-spacing:-3.36312px;fill:#0044aa;stroke-width:0.153558"
       id="path1370" /><path
       d="m 97.471237,40.055179 q -0.334434,0 -0.668867,-0.06689 -0.334434,-0.05016 -0.78592,-0.267547 v 2.759078 q 0,0.434764 -0.30099,0.719031 -0.300991,0.300991 -0.852805,0.300991 -0.551816,0 -0.852807,-0.300991 -0.30099,-0.30099 -0.30099,-0.719031 v -8.49461 q 0,-0.284269 -0.05016,-0.451486 -0.03344,-0.183938 -0.133774,-0.334434 -0.10033,-0.133773 -0.167216,-0.234102 -0.06689,-0.117052 -0.06689,-0.30099 0,-0.468208 0.351154,-0.735754 0.351156,-0.284269 0.752477,-0.284269 0.267547,0 0.468207,0.133774 0.217381,0.117051 0.40132,0.334433 0.60198,-0.334433 1.137074,-0.535094 0.551815,-0.20066 1.220682,-0.20066 0.719033,0 1.28757,0.250825 0.568537,0.234104 0.953135,0.668868 0.384603,0.418042 0.585263,1.036743 0.21738,0.60198 0.21738,1.321013 v 1.939715 q 0,0.735754 -0.16722,1.371178 -0.15049,0.635423 -0.535093,1.10363 -0.367877,0.468207 -0.986578,0.735754 -0.601981,0.250825 -1.504952,0.250825 z M 96.01645,37.931526 q 0.384599,0.117051 0.685589,0.167217 0.300991,0.05016 0.535094,0.05016 0.618702,0 0.869527,-0.367877 0.250825,-0.384597 0.250825,-1.187238 v -1.939715 q 0,-1.337734 -1.086908,-1.337734 -0.518373,0 -1.287571,0.351154 0.01672,0.08361 0.01672,0.167217 0.01672,0.06689 0.01672,0.150496 z"
       style="font-weight:bold;line-height:0%;font-family:'Blogger Sans';-inkscape-font-specification:'Blogger Sans Bold';letter-spacing:-3.36312px;fill:#0044aa;stroke-width:0.153558"
       id="path1372" /><path
       d="m 105.9009,33.500281 q -0.26755,-0.01672 -0.46821,-0.01672 -0.20066,-0.01672 -0.38459,0 -0.18394,0.01672 -0.36788,0.06689 -0.16722,0.03344 -0.3846,0.117051 0.0167,0.08361 0.0167,0.167217 0.0167,0.06689 0.0167,0.150496 v 5.049947 q 0,0.434764 -0.33443,0.735754 -0.33443,0.30099 -0.81936,0.30099 -0.48493,0 -0.81937,-0.30099 -0.33443,-0.30099 -0.33443,-0.735754 V 33.98521 q 0,-0.284269 -0.0502,-0.451486 -0.0335,-0.183938 -0.13378,-0.334434 -0.10033,-0.133773 -0.16721,-0.250824 -0.0669,-0.117051 -0.0669,-0.30099 0,-0.451486 0.33443,-0.719032 0.35116,-0.284269 0.80264,-0.284269 0.26755,0 0.48493,0.150495 0.21738,0.133774 0.40132,0.367877 0.58526,-0.334433 1.12036,-0.518372 0.55181,-0.20066 0.95313,-0.20066 0.78592,0 1.07019,0.30099 0.30099,0.284269 0.30099,0.702311 0,0.484929 -0.35116,0.785918 -0.33443,0.30099 -0.81936,0.267547 z"
       style="font-weight:bold;line-height:0%;font-family:'Blogger Sans';-inkscape-font-specification:'Blogger Sans Bold';letter-spacing:-3.36312px;fill:#338000;stroke-width:0.153558"
       id="path1374" /><path
       d="m 111.17019,40.071901 q -0.88625,0 -1.57184,-0.234103 -0.66887,-0.250826 -1.13707,-0.668867 -0.45149,-0.418043 -0.68559,-0.98658 -0.23411,-0.568537 -0.23411,-1.220682 v -2.491531 q 0,-0.652145 0.23411,-1.220682 0.2341,-0.568537 0.68559,-0.986579 0.4682,-0.418042 1.13707,-0.652145 0.68559,-0.250825 1.57184,-0.250825 0.88625,0 1.55512,0.250825 0.68558,0.234103 1.13707,0.652145 0.46821,0.418042 0.70231,0.986579 0.2341,0.568537 0.2341,1.220682 v 2.491531 q 0,0.652145 -0.2341,1.220682 -0.2341,0.568537 -0.70231,0.98658 -0.45149,0.418041 -1.13707,0.668867 -0.66887,0.234103 -1.55512,0.234103 z m 0,-1.973158 q 0.65214,0 0.98658,-0.30099 0.33443,-0.30099 0.33443,-0.836084 v -2.508252 q 0,-0.518373 -0.33443,-0.819363 -0.33444,-0.30099 -0.98658,-0.30099 -0.65215,0 -0.98658,0.30099 -0.33443,0.30099 -0.33443,0.819363 v 2.508252 q 0,0.535094 0.33443,0.836084 0.33443,0.30099 0.98658,0.30099 z"
       style="font-weight:bold;line-height:0%;font-family:'Blogger Sans';-inkscape-font-specification:'Blogger Sans Bold';letter-spacing:-3.36312px;fill:#338000;stroke-width:0.153558"
       id="path1376" /><path
       d="m 119.41592,40.071901 q -0.88625,0 -1.57184,-0.234103 -0.66887,-0.250826 -1.13707,-0.668867 -0.45149,-0.418043 -0.68559,-0.98658 -0.2341,-0.568537 -0.2341,-1.220682 v -2.491531 q 0,-0.652145 0.2341,-1.220682 0.2341,-0.568537 0.68559,-0.986579 0.4682,-0.418042 1.13707,-0.652145 0.68559,-0.250825 1.57184,-0.250825 0.88625,0 1.55512,0.250825 0.68558,0.234103 1.13707,0.652145 0.46821,0.418042 0.70231,0.986579 0.2341,0.568537 0.2341,1.220682 v 2.491531 q 0,0.652145 -0.2341,1.220682 -0.2341,0.568537 -0.70231,0.98658 -0.45149,0.418041 -1.13707,0.668867 -0.66887,0.234103 -1.55512,0.234103 z m 0,-1.973158 q 0.65215,0 0.98658,-0.30099 0.33443,-0.30099 0.33443,-0.836084 v -2.508252 q 0,-0.518373 -0.33443,-0.819363 -0.33443,-0.30099 -0.98658,-0.30099 -0.65215,0 -0.98658,0.30099 -0.33443,0.30099 -0.33443,0.819363 v 2.508252 q 0,0.535094 0.33443,0.836084 0.33443,0.30099 0.98658,0.30099 z"
       style="font-weight:bold;line-height:0%;font-family:'Blogger Sans';-inkscape-font-specification:'Blogger Sans Bold';letter-spacing:-3.36312px;fill:#338000;stroke-width:0.153558"
       id="path1378" /><path
       d="m 124.35076,29.988729 q 0,-0.434764 0.30099,-0.719032 0.30099,-0.30099 0.8528,-0.30099 0.55182,0 0.85281,0.30099 0.30099,0.30099 0.30099,0.719032 v 1.856106 h 1.2374 q 0.46821,0 0.78592,0.284269 0.31771,0.284268 0.31771,0.719032 0,0.434764 -0.31771,0.719031 -0.31771,0.267547 -0.78592,0.267547 h -1.2374 v 2.524974 q 0,0.468208 0.0167,0.785919 0.0334,0.317712 0.13377,0.518372 0.10033,0.200661 0.26755,0.284268 0.18394,0.08361 0.48493,0.08361 0.11705,0 0.18394,0 0.0669,-0.01672 0.10033,-0.01672 0.80264,0 1.08691,0.217383 0.28426,0.217381 0.28426,0.685588 0,0.367877 -0.13377,0.585259 -0.13377,0.217381 -0.36788,0.334434 -0.21738,0.117051 -0.50165,0.150494 -0.28426,0.03344 -0.60198,0.03344 -0.96985,0 -1.60528,-0.234103 -0.63542,-0.234104 -1.0033,-0.685588 -0.36788,-0.451486 -0.51837,-1.103631 -0.13377,-0.668867 -0.13377,-1.521674 z"
       style="font-weight:bold;line-height:0%;font-family:'Blogger Sans';-inkscape-font-specification:'Blogger Sans Bold';letter-spacing:-3.36312px;fill:#338000;stroke-width:0.153558"
       id="path1380" /><path
       d="m 131.47613,40.071901 q -0.25083,0 -0.53509,-0.06689 -0.28427,-0.05016 -0.51838,-0.250825 -0.2341,-0.217382 -0.40132,-0.601981 -0.15049,-0.40132 -0.15049,-1.053465 v -9.180201 q 0,-0.418042 0.33443,-0.719033 0.33444,-0.317712 0.81936,-0.317712 0.48493,0 0.81937,0.300991 0.33443,0.30099 0.33443,0.735754 v 8.979541 q 0,0.267547 0.0334,0.384598 0.0334,0.117052 0.21738,0.30099 0.13378,0.133773 0.21739,0.250826 0.0836,0.10033 0.0836,0.334434 0,0.451484 -0.33443,0.685588 -0.33443,0.217382 -0.91969,0.217382 z"
       style="font-weight:bold;line-height:0%;font-family:'Blogger Sans';-inkscape-font-specification:'Blogger Sans Bold';letter-spacing:-3.36312px;fill:#333333;stroke-width:0.153558"
       id="path1382" /><path
       d="m 136.4444,29.186088 q 0,0.484929 -0.3846,0.836084 -0.36787,0.334434 -0.91969,0.334434 -0.55182,0 -0.93641,-0.334434 -0.36788,-0.351155 -0.36788,-0.836084 0,-0.484928 0.36788,-0.819362 0.38459,-0.351155 0.93641,-0.351155 0.55182,0 0.91969,0.351155 0.3846,0.334434 0.3846,0.819362 z m -0.15049,9.849069 q 0,0.434764 -0.33444,0.735754 -0.33443,0.30099 -0.81936,0.30099 -0.48493,0 -0.81936,-0.30099 -0.33444,-0.30099 -0.33444,-0.735754 v -6.588341 q 0,-0.418042 0.33444,-0.719033 0.33443,-0.30099 0.81936,-0.30099 0.48493,0 0.81936,0.30099 0.33444,0.300991 0.33444,0.719033 z"
       style="font-weight:bold;line-height:0%;font-family:'Blogger Sans';-inkscape-font-specification:'Blogger Sans Bold';letter-spacing:-3.36312px;fill:#333333;stroke-width:0.153558"
       id="path1384" /><path
       d="m 140.44282,39.035157 q 0,0.434764 -0.28427,0.735754 -0.28427,0.284268 -0.86953,0.284268 -0.58526,0 -0.86953,-0.284268 -0.28426,-0.30099 -0.28426,-0.735754 v -5.066669 q 0,-0.418042 -0.0502,-0.518372 -0.0334,-0.10033 -0.0836,-0.183939 -0.18394,-0.234103 -0.2341,-0.351154 -0.0502,-0.133774 -0.0502,-0.300991 0,-0.418042 0.31772,-0.685588 0.31771,-0.284269 0.80264,-0.284269 0.50165,0 0.88625,0.484929 0.56853,-0.384599 1.13707,-0.551816 0.56854,-0.167216 1.07019,-0.167216 1.58856,0 2.37448,0.90297 0.78592,0.886248 0.78592,2.357756 v 4.364359 q 0,0.434764 -0.30099,0.735754 -0.301,0.284268 -0.85281,0.284268 -0.55182,0 -0.85281,-0.284268 -0.30099,-0.30099 -0.30099,-0.735754 v -4.364359 q 0,-0.635424 -0.30099,-0.986578 -0.28427,-0.367877 -0.78592,-0.367877 -0.51837,0 -1.28756,0.351154 0.0167,0.08361 0.0167,0.167217 0.0167,0.06689 0.0167,0.150496 z"
       style="font-weight:bold;line-height:0%;font-family:'Blogger Sans';-inkscape-font-specification:'Blogger Sans Bold';letter-spacing:-3.36312px;fill:#333333;stroke-width:0.153558"
       id="path1386" /><path
       d="m 152.16665,39.336147 q -0.58526,0.418042 -1.17052,0.585258 -0.56854,0.150496 -1.13707,0.150496 -1.52168,0 -2.32432,-0.90297 -0.78592,-0.902971 -0.78592,-2.374479 v -4.364358 q 0,-0.434764 0.30099,-0.719032 0.30099,-0.284269 0.85281,-0.284269 0.55182,0 0.85281,0.284269 0.30099,0.284268 0.30099,0.719032 v 4.364358 q 0,0.635424 0.26754,0.986578 0.26755,0.351156 0.81936,0.351156 0.50165,0 1.28757,-0.351156 -0.0167,-0.08361 -0.0334,-0.150494 0,-0.08361 0,-0.167217 v -5.033225 q 0,-0.434764 0.28427,-0.719032 0.28427,-0.284269 0.86953,-0.284269 0.58526,0 0.86952,0.284269 0.28427,0.284268 0.28427,0.719032 v 5.367659 q 0,0.183938 0.0669,0.30099 0.0836,0.117051 0.25082,0.284268 0.23411,0.234103 0.23411,0.568537 0,0.50165 -0.35116,0.769197 -0.33443,0.250826 -0.71903,0.250826 -0.33443,0 -0.58526,-0.167217 -0.25082,-0.183939 -0.43476,-0.468207 z"
       style="font-weight:bold;line-height:0%;font-family:'Blogger Sans';-inkscape-font-specification:'Blogger Sans Bold';letter-spacing:-3.36312px;fill:#333333;stroke-width:0.153558"
       id="path1388" /><path
       d="m 162.13471,38.500063 q 0.10033,0.133774 0.13378,0.267547 0.0334,0.117051 0.0334,0.250825 0,0.434763 -0.31771,0.752476 -0.31771,0.30099 -0.85281,0.30099 -0.40132,0 -0.6187,-0.133773 -0.20066,-0.150496 -0.43476,-0.468207 -0.21739,-0.317713 -0.40132,-0.551816 -0.16722,-0.234104 -0.33444,-0.451485 -0.15049,-0.217383 -0.33443,-0.451486 -0.18394,-0.250824 -0.40132,-0.568537 -0.3846,0.535094 -0.78592,1.070187 -0.3846,0.518373 -0.7692,1.053467 -0.3846,0.50165 -0.95313,0.50165 -0.48493,0 -0.83609,-0.284269 -0.33443,-0.284268 -0.33443,-0.752475 0,-0.284269 0.16722,-0.50165 0.56853,-0.769197 1.0869,-1.438065 0.51838,-0.668867 1.08691,-1.438064 -0.50165,-0.668867 -1.0033,-1.304291 -0.50165,-0.652146 -1.0033,-1.354455 -0.10033,-0.117053 -0.15049,-0.267547 -0.0502,-0.150496 -0.0502,-0.267548 0,-0.418042 0.33444,-0.719032 0.33443,-0.317712 0.81936,-0.317712 0.25082,0 0.41804,0.06689 0.18394,0.06689 0.31771,0.183938 0.13378,0.100331 0.23411,0.234104 0.10033,0.117052 0.18393,0.234103 l 1.27085,1.722333 1.33774,-1.856106 q 0.18393,-0.267547 0.40132,-0.418042 0.2341,-0.167217 0.63542,-0.167217 0.20066,0 0.40132,0.08361 0.20066,0.06689 0.36788,0.20066 0.16721,0.133773 0.26754,0.317712 0.10034,0.183938 0.10034,0.40132 0,0.117052 -0.0335,0.267548 -0.0334,0.133773 -0.13377,0.267546 l -2.0066,2.69219 z"
       style="font-weight:bold;line-height:0%;font-family:'Blogger Sans';-inkscape-font-specification:'Blogger Sans Bold';letter-spacing:-3.36312px;fill:#333333;stroke-width:0.153558"
       id="path1390" /><path
       inkscape:connector-curvature="0"
       class="fil0"
       d="m 63.015529,24.875965 c 0.657732,0.09396 0.657732,0.657733 0.751694,1.127542 0.09396,0.281885 0.09396,0.657732 0.187923,0.939617 0,0.657733 -0.09396,0.845656 -0.469809,1.503399 -0.56377,0.657732 -1.033579,1.503388 -1.879235,1.973197 -0.469819,0.281885 -0.939628,0.657732 -1.59736,0.845656 -0.187924,0 -0.375847,0.187923 -0.657733,0.09396 -0.187923,-0.09396 -0.56377,-0.375847 -0.56377,-0.657733 0.09396,-0.09396 0.187923,-0.281885 0.281885,-0.375847 0,-0.281885 0.09396,-0.56377 0.187924,-0.845656 0,-2.63094 -0.657733,-3.570557 2.16112,-5.261869 0.375858,-0.187923 0.657743,0.469809 1.597361,0.657732 z"
       id="path7144-4-2"
       style="fill:#338000;fill-opacity:1;fill-rule:evenodd;stroke-width:1.04402" /><path
       inkscape:connector-curvature="0"
       class="fil0"
       d="m 50.706506,45.453644 c 0.563771,0 1.221503,0.375847 1.03358,1.033579 -0.187924,0.469809 -0.469809,0.845656 -0.657733,1.315465 -0.09396,0.281885 -0.281885,0.469809 -0.187923,0.751705 -0.09396,0.187923 -0.09396,0.281885 -0.09396,0.375847 -0.281885,0.469808 -0.751694,0.845656 -1.503388,0.56377 -1.691322,-0.657732 -0.281896,-3.100748 0.469809,-3.758481 0.187923,-0.09396 0.375847,-0.187923 0.56377,-0.187923 0.09396,-0.09396 0.281886,-0.09396 0.375847,-0.09396 z"
       id="path7146-9-7"
       style="fill:#338000;fill-opacity:1;fill-rule:evenodd;stroke-width:1.04402" /><path
       inkscape:connector-curvature="0"
       class="fil0"
       d="m 59.069124,41.883086 c 1.691312,0.09396 2.912825,1.59735 3.476596,2.818864 0.281885,0.657732 0.56377,1.691312 0,2.16112 -0.187924,0.09396 -0.469809,0.281886 -0.657732,0.469809 -0.375848,0.375847 -0.939629,0.563771 -1.409437,0.09396 -0.375847,-0.469809 -0.563771,-1.221503 -1.221503,-1.503388 -0.09396,-0.09396 -0.187924,-0.09396 -0.281886,-0.281886 -0.187923,-1.033579 -1.879245,-2.630939 -0.845655,-3.382633 0.187923,-0.187924 0.375847,-0.281886 0.56377,-0.375848 0.09396,0 0.281885,0 0.375847,0 z"
       id="path7148-4-0"
       style="fill:#338000;fill-opacity:1;fill-rule:evenodd;stroke-width:1.04402" /><path
       inkscape:connector-curvature="0"
       class="fil0"
       d="m 55.780452,37.654797 c 0.657732,0.09396 1.221503,0.56377 1.127541,1.409426 -0.09396,0.09396 -0.187923,0.375847 -0.09396,0.469809 0,0.469809 0.187924,1.221513 0.09396,1.879246 -0.187923,0.939617 -0.469809,2.349044 -0.09396,3.382634 0,0.281885 0.187924,0.657732 0.469809,0.751694 0.187934,0 0.281896,0 0.375858,0.09396 0.375847,0.187924 0.56377,0.563771 0.751694,0.939618 0.187923,0.563771 0.09396,1.315465 -0.09396,1.879246 0,0.09396 -0.09396,0.469809 -0.187923,0.56377 -0.187924,0.187924 -0.563771,0.187924 -0.939629,0.281886 -0.751694,0.281885 -2.16112,0.56377 -3.288661,0.469809 -0.563771,-0.09396 -1.315475,0.09396 -1.691323,-0.281886 -0.56377,-0.751694 0.469809,-2.255093 0.751695,-2.724901 -0.751695,-2.818864 1.127551,-4.322252 1.785284,-6.201487 0.09396,-0.375847 0.187923,-0.939628 0.09396,-1.409437 0,-0.187924 0,-0.281885 0,-0.469809 0,-0.375847 0.375847,-0.751694 0.657733,-0.939618 0.09396,0 0.187923,-0.09396 0.281885,-0.09396 z"
       id="path7150-6-9"
       style="fill:#338000;fill-opacity:1;fill-rule:evenodd;stroke-width:1.04402" /><path
       inkscape:connector-curvature="0"
       class="fil0"
       d="m 51.646124,36.997064 c 1.503388,0.187924 1.503388,1.03358 1.691322,2.255083 0.09396,0.281885 0.281885,1.033589 0.187924,1.315475 -0.09396,0.281885 -0.657743,0.845656 -0.939628,1.033579 -0.187924,0.187924 -0.375848,0.375847 -0.657733,0.563771 -0.56377,0.469809 -1.127541,0.939617 -1.785273,1.315464 -0.375847,0.187924 -0.845656,0.375848 -1.127552,0.657733 -0.563771,0.751704 -0.939618,1.59736 -1.409426,2.349054 -0.187924,0.469809 -0.375847,0.939618 -0.845656,1.221503 -0.657733,0.375847 -1.315465,-0.281885 -1.59735,-0.751694 -0.563781,0 -1.221514,-0.187923 -1.315475,-0.56377 -0.375847,-1.221503 5.731688,-5.355831 6.107535,-6.577345 0.187924,-0.375847 0.469809,-0.751694 0.657733,-1.221503 0.187923,-0.56377 0.187923,-1.221503 0.657732,-1.503388 0.09396,0 0.187923,0 0.375847,-0.09396 z"
       id="path7152-8-3"
       style="fill:#338000;fill-opacity:1;fill-rule:evenodd;stroke-width:1.04402" /><path
       inkscape:connector-curvature="0"
       class="fil0"
       d="m 57.941583,36.057436 c 0.375847,0.281896 0.845656,0.563781 1.221503,0.845667 0.657732,0.375847 1.127541,0.657732 1.785273,0.939617 0.375847,0.187924 0.751705,0.375847 1.127552,0.469809 1.315465,0.563771 2.536968,1.409426 3.476585,2.255093 0.563781,0.657732 1.409437,1.409426 1.03359,2.349044 -0.09396,0.281885 -0.281885,0.469809 -0.375847,0.657732 -0.375847,0.375847 -0.751704,0.657733 -1.127552,1.03359 -1.033579,0.657732 -1.409426,-0.657743 -1.691311,-1.409437 -0.09396,-0.56377 -0.187924,-0.751694 -0.563771,-1.127541 -1.033579,-1.033579 -2.443016,-1.785274 -3.664519,-2.536978 -1.127541,-0.657732 -1.879246,-1.503388 -2.724902,-2.443006 -0.281885,-0.375847 -0.657732,-0.751694 -1.033579,-0.939618 -0.09396,-1.315475 1.973197,-0.563781 2.536978,-0.09396 z"
       id="path7154-3-6"
       style="fill:#338000;fill-opacity:1;fill-rule:evenodd;stroke-width:1.04402" /><path
       inkscape:connector-curvature="0"
       class="fil0"
       d="m 58.411392,30.513682 c -0.375847,1.785284 -0.563771,3.476595 -2.067169,3.946404 -0.469809,0.09396 -1.127542,0.09396 -1.59735,0 -1.127542,-0.281885 -1.973208,-1.503388 -1.221503,-2.724901 0.281885,-0.375847 0.751694,-0.657733 1.127541,-1.03358 0.657732,-0.56377 1.409426,-1.221503 2.067159,-1.879235 1.785284,-1.409437 2.067169,-0.375847 1.691322,1.691312 z"
       id="path7156-2-0"
       style="fill:#338000;fill-opacity:1;fill-rule:evenodd;stroke-width:1.04402" /><path
       inkscape:connector-curvature="0"
       class="fil0"
       d="m 66.680048,28.728408 c 0.657732,0.939618 0.939618,2.067159 1.221503,3.382634 0.56377,2.536968 -1.221503,1.691312 -3.100749,2.067159 -0.375847,0 -0.469809,0.09396 -0.939617,-0.09396 -0.375848,-0.09396 -0.939618,-0.09396 -1.221503,-0.09396 -0.563771,0.09396 -1.691323,0.187924 -2.161131,-0.187923 -0.469809,-0.375847 0.281885,-0.939618 0.469808,-1.127541 1.221514,-0.845667 2.349055,-1.691322 3.66452,-2.349055 0.09396,-0.09396 0.09396,-0.187923 0.09396,-0.281885 -0.09396,-0.751694 -0.09396,-1.785274 0.469809,-1.973197 0.657743,-0.187934 1.127552,0.187923 1.503399,0.657732 z"
       id="path7158-3-6"
       style="fill:#338000;fill-opacity:1;fill-rule:evenodd;stroke-width:1.04402" /><path
       inkscape:connector-curvature="0"
       class="fil0"
       d="m 52.961589,21.587293 c 1.879245,0 3.570557,0.09396 4.979994,0.469809 0.375847,0.09396 1.221503,0.563771 1.315465,0.845656 0.187923,0.563771 -0.469809,1.03359 -0.657733,1.315475 -0.845656,0.939618 -1.691322,1.503388 -2.724901,2.255082 -0.563771,0.375847 -0.939618,0.751695 -1.503388,1.127542 -1.879246,1.691322 -3.382634,3.852442 -4.22829,5.919612 -0.375847,0.939617 -0.751694,1.879235 -1.221514,2.818863 -0.845656,1.785273 -1.785273,3.382623 -3.006776,4.79206 -0.845666,0.939618 -1.785284,1.785274 -2.912825,2.443006 -0.375847,0.281886 -0.845656,0.563771 -1.315465,0.657733 -0.469809,-0.187924 -0.751705,-0.469809 -1.03359,-0.845656 -0.751694,-1.03358 -1.409426,-2.536968 -1.785273,-3.758481 -0.845656,-2.443006 -0.845656,-5.543755 0,-7.892809 1.503388,-4.040367 4.510175,-7.42299 8.550541,-9.020351 1.127541,-0.469808 2.255093,-0.751694 3.570558,-1.033579 0.469808,0 0.939617,-0.09396 1.409426,-0.09396 0.187924,0 0.375847,0 0.563771,0 z"
       id="path7160-6-2"
       style="fill:#338000;fill-opacity:1;fill-rule:evenodd;stroke-width:1.04402" /><path
       inkscape:connector-curvature="0"
       class="fil0"
       d="m 68.089474,35.117819 c 0,0.281885 0,0.469808 0.09396,0.657732 0.187924,1.221513 0.281885,2.912825 -0.281885,3.852443 -0.09396,0.281885 -0.751694,1.03359 -1.03358,0.657742 -0.281885,-0.187933 -0.469808,-0.751704 -0.751694,-0.939628 -0.469808,-0.375847 -1.03359,-0.751694 -1.503398,-1.127541 -0.751694,-0.657732 -1.879236,-0.56377 -2.443006,-0.751694 -0.187924,-0.187923 -0.939628,-0.751694 -0.845667,-1.221503 0.187934,-0.563781 0.939629,-0.563781 1.597361,-0.657743 0.751694,-0.187923 1.59735,-0.187923 2.349044,-0.375847 0.751705,-0.281885 2.255093,-1.033579 2.818863,-0.09396 z"
       id="path7162-2-6"
       style="fill:#338000;fill-opacity:1;fill-rule:evenodd;stroke-width:1.04402" /><path
       style="font-size:41.9183px;font-family:'Freebooter Script';-inkscape-font-specification:'Freebooter Script, Normal';text-align:center;letter-spacing:4.15681px;text-anchor:middle;fill:#aa0000;stroke:#000000;stroke-width:0.0347664;stroke-linecap:round;stroke-linejoin:round;stroke-dasharray:0.0347664, 0.0347664;paint-order:markers stroke fill"
       d="m 131.95351,45.14017 q -0.13953,-0.837163 -1.25574,-2.874259 -0.41859,-0.809258 -0.72555,-1.33946 -0.27905,-0.530204 -0.5023,-0.837163 -1.33946,1.032501 -2.31615,1.785947 -0.94878,0.753447 -1.61851,1.255744 l -1.25574,0.725541 q -0.33487,0.195338 -0.41859,0.362771 l -0.5302,0.558109 q -0.66973,0.641825 -0.66973,0.753446 0,0.111622 0.0837,0.111622 h 0.16743 q 2.065,-1.032501 6.36244,-4.297436 0.39067,0.586014 0.61392,1.116217 0.25115,0.502297 0.33487,0.97669 l 0.25114,0.948785 q -0.0279,0.139527 0.22325,0.223243 0.0279,0.02791 0.0558,0.02791 0.0279,0 0.0558,0.05581 l 0.39068,0.334865 q 0.39067,0.362771 0.5023,0.362771 0.25114,-0.111622 0.25114,-0.251149 z"
       id="text1"
       aria-label="^" /><path
       style="font-size:16.2095px;font-family:'My Kids Handwritten';-inkscape-font-specification:'My Kids Handwritten, Normal';text-align:center;letter-spacing:-0.218595px;text-anchor:middle;fill:#aa0000;stroke:#000000;stroke-width:0.0134439;stroke-linecap:round;stroke-linejoin:round;stroke-dasharray:0.0134439, 0.0134439;paint-order:markers stroke fill"
       d="m 128.23368,19.12188 c -0.11466,0.03072 -0.24048,0.01975 -0.35664,-0.0385 -0.36855,-0.124677 -0.76891,-0.117943 -1.11696,0.04235 -0.33001,0.144283 -0.6036,0.373991 -0.80274,0.673122 -0.63351,0.92941 -0.77878,2.096655 -0.38688,3.14231 0.0886,0.289057 0.25784,0.545343 0.48884,0.74039 0.3347,0.29015 0.80673,0.342412 1.19293,0.116043 0.30357,-0.15954 0.55073,-0.404511 0.72902,-0.698057 0.11725,-0.187816 0.22128,-0.383263 0.34057,-0.605144 0.0536,0.07501 0.0891,0.166028 0.10387,0.262628 0.19905,0.784526 0.35636,1.580235 0.4901,2.371089 0.0302,0.237683 0.0471,0.467746 0.0669,0.708225 0.0184,0.319035 -0.15091,0.52081 -0.43159,0.640703 -0.0986,0.04877 -0.20288,0.07671 -0.29947,0.09142 -0.091,0.03556 -0.18558,0.01621 -0.26487,-0.02957 -0.0793,-0.04578 -0.13291,-0.120787 -0.15805,-0.214595 -0.0223,-0.08338 -0.0343,-0.169562 -0.0642,-0.239733 -0.0551,-0.163979 -0.20327,-0.258334 -0.37079,-0.258134 -0.16473,0.01062 -0.31195,0.128274 -0.34581,0.293746 -0.0249,0.07371 -0.0339,0.165474 -0.0352,0.244022 0.0585,0.676956 0.50172,1.038572 1.0523,1.09213 0.28571,0.02399 0.5623,-0.02778 0.81171,-0.139295 0.71211,-0.302525 1.04655,-0.805482 1.06584,-1.525627 5.3e-4,-0.123028 -0.002,-0.256497 -0.0116,-0.376731 -0.0738,-0.650523 -0.18922,-1.289876 -0.33595,-1.920849 -0.12311,-0.626131 -0.29068,-1.251519 -0.41374,-1.877662 -0.0881,-0.412085 -0.16855,-0.837385 -0.23575,-1.255065 -0.0518,-0.276584 -0.0959,-0.5664 -0.15047,-0.853402 -0.065,-0.284216 -0.2904,-0.458418 -0.56141,-0.385803 z m -0.32526,1.2043 c -0.0673,0.665985 -0.23199,1.302198 -0.48359,1.905845 -0.10533,0.273994 -0.27674,0.509838 -0.50939,0.683892 -0.12153,0.08842 -0.17923,0.08154 -0.27528,-0.02678 -0.10242,-0.173643 -0.18393,-0.35289 -0.22378,-0.543299 -0.14395,-0.620547 -0.0502,-1.271276 0.25428,-1.844401 0.0936,-0.192654 0.24771,-0.368004 0.43942,-0.4864 0.13195,-0.09122 0.30152,-0.125481 0.45657,-0.08882 0.24961,0.056 0.36371,0.148316 0.34177,0.399967 z m 6.00337,1.161932 c -0.10817,-0.362019 -0.21913,-0.734461 -0.31688,-1.09927 -0.13685,-0.510734 -0.26049,-1.013836 -0.39455,-1.514146 -0.0886,-0.289057 -0.2057,-0.559317 -0.35409,-0.821184 -0.10801,-0.194489 -0.24722,-0.380619 -0.40935,-0.527089 -0.4099,-0.404058 -1.11907,-0.54918 -1.67164,0.05691 -0.16174,0.188566 -0.29704,0.392391 -0.39549,0.608686 -0.0401,0.100133 -0.0936,0.192654 -0.15669,0.332445 -0.0856,-0.111121 -0.14278,-0.241029 -0.18188,-0.386953 -0.0719,-0.226518 -0.30696,-0.353438 -0.53906,-0.302418 -0.22931,0.06144 -0.38267,0.281278 -0.33928,0.526596 0.0343,0.169562 0.0505,0.355128 0.098,0.532322 0.32118,1.198661 0.64515,2.407744 0.96633,3.606406 0.0147,0.0966 0.0607,0.184825 0.11428,0.259836 0.11563,0.181275 0.33395,0.245665 0.54241,0.189808 0.19525,-0.06349 0.33613,-0.246467 0.33518,-0.458472 0.003,-0.112605 -0.0142,-0.219628 -0.0497,-0.310644 -0.10892,-0.406503 -0.21505,-0.802582 -0.32397,-1.209084 -0.16757,-0.625389 -0.16757,-0.625389 -0.0189,-1.279654 0.0629,-0.307308 0.14178,-0.596565 0.25474,-0.883775 0.07,-0.197491 0.16916,-0.369301 0.29199,-0.536271 0.16173,-0.188565 0.27155,-0.195646 0.44485,-0.0075 0.14967,0.183327 0.26043,0.388249 0.34272,0.611972 0.14018,0.398128 0.25952,0.80184 0.3504,1.224348 0.0985,0.409293 0.1998,0.82901 0.31914,1.232721 0.0503,0.187617 0.12138,0.369651 0.20017,0.538453 0.0571,0.129918 0.13239,0.243814 0.23604,0.338926 0.13571,0.131211 0.33524,0.167117 0.50126,0.07795 0.16602,-0.08917 0.26243,-0.271403 0.23579,-0.454181 -0.0203,-0.117446 -0.051,-0.232101 -0.0817,-0.346755 z m 2.82596,-4.734263 c -0.0384,-0.101441 -0.10801,-0.19449 -0.18244,-0.263919 -0.10089,-0.08468 -0.25314,-0.110912 -0.37543,-0.06698 -0.13271,0.04673 -0.22781,0.150414 -0.24641,0.289457 -0.0221,0.08413 -0.0207,0.173112 0.002,0.256497 0.0168,0.06254 0.0363,0.1355 0.0559,0.208463 0.12493,0.424557 0.21581,0.847065 0.26498,1.280748 0.054,0.410053 0.0663,0.831258 0.0209,1.245592 -0.0227,0.207166 -0.10028,0.417875 -0.2099,0.592475 -0.16582,0.25669 -0.32775,0.277737 -0.54834,0.0799 -0.1545,-0.159689 -0.28332,-0.348601 -0.36282,-0.561901 -0.29005,-0.74897 -0.51273,-1.538335 -0.63602,-2.331991 -0.0175,-0.107023 -0.035,-0.214045 -0.0734,-0.315485 -0.0363,-0.135501 -0.1532,-0.238237 -0.29225,-0.256837 -0.22876,-0.06159 -0.45936,0.0784 -0.52374,0.296738 -0.0395,0.144629 -0.0553,0.294092 -0.037,0.445602 0.0304,0.405207 0.10243,0.799242 0.20856,1.195321 0.0503,0.187617 0.0929,0.388448 0.1564,0.583696 0.0691,0.216095 0.13535,0.421766 0.22531,0.632261 0.11504,0.30432 0.28223,0.594667 0.48551,0.853 0.13365,0.165274 0.30342,0.298529 0.48081,0.418569 0.46535,0.277483 1.05818,0.196836 1.44977,-0.176206 0.14926,-0.15171 0.2693,-0.329103 0.36291,-0.521757 0.14627,-0.329652 0.23967,-0.689825 0.24411,-1.048502 0.0348,-0.579058 -0.0118,-1.169837 -0.13137,-1.741064 -0.0693,-0.383606 -0.18788,-0.742834 -0.33772,-1.093687 z"
       id="text2"
       aria-label="gnu" /><path
       style="font-size:10.5694px;font-family:'Blokletters Viltstift';-inkscape-font-specification:'Blokletters Viltstift, Normal';text-align:center;letter-spacing:-0.142534px;text-anchor:middle;fill:#aa0000;stroke:#000000;stroke-width:0.00281772;stroke-linecap:round;stroke-linejoin:round;stroke-dasharray:0.00281773, 0.00281773;paint-order:markers stroke fill"
       d="m 138.35954,23.148417 q -0.0294,0.150733 -0.10601,0.247286 -0.0693,0.102848 -0.16503,0.13559 -0.10698,0.03659 -0.23247,-0.0172 -0.1086,-0.05957 -0.18057,-0.175639 -0.0719,-0.116077 -0.10054,-0.255768 -0.0336,-0.164343 -0.004,-0.315077 0.0671,-0.172434 0.17385,-0.622197 0.10672,-0.449764 0.23779,-1.074914 0.13501,-0.635293 0.28361,-1.380748 0.15256,-0.755598 0.30906,-1.521338 0.1565,-0.765742 0.30284,-1.492836 0.15196,-0.72902 0.28018,-1.309232 0.13385,-0.582138 0.23714,-0.960387 0.1033,-0.378248 0.1664,-0.45259 0.0812,-0.221222 0.25014,-0.279001 0.15765,-0.05393 0.30223,0.06368 0.0788,0.06099 0.12879,0.158178 0.0556,0.09527 0.0792,0.210311 0.0219,0.106823 0.0156,0.223268 -0.002,0.106313 -0.0418,0.207742 z"
       id="text4"
       aria-label="/" /></g></svg>
