<?xml version="1.0" encoding="UTF-8" standalone="no"?>
<!-- Created with Inkscape (http://www.inkscape.org/) -->

<svg
   width="140.33034mm"
   height="30.757277mm"
   viewBox="0 0 140.33034 30.757277"
   version="1.1"
   id="svg1"
   inkscape:version="1.3 (0e150ed6c4, 2023-07-21)"
   sodipodi:docname="mostlyharmless-logo.svg"
   xmlns:inkscape="http://www.inkscape.org/namespaces/inkscape"
   xmlns:sodipodi="http://sodipodi.sourceforge.net/DTD/sodipodi-0.dtd"
   xmlns="http://www.w3.org/2000/svg"
   xmlns:svg="http://www.w3.org/2000/svg">
  <sodipodi:namedview
     id="namedview1"
     pagecolor="#ffffff"
     bordercolor="#000000"
     borderopacity="0.25"
     inkscape:showpageshadow="2"
     inkscape:pageopacity="0.0"
     inkscape:pagecheckerboard="0"
     inkscape:deskcolor="#d1d1d1"
     inkscape:document-units="mm"
     inkscape:zoom="1.1037668"
     inkscape:cx="403.61787"
     inkscape:cy="207.01837"
     inkscape:window-width="2560"
     inkscape:window-height="1440"
     inkscape:window-x="1920"
     inkscape:window-y="0"
     inkscape:window-maximized="1"
     inkscape:current-layer="layer1" />
  <defs
     id="defs1" />
  <g
     inkscape:label="Layer 1"
     inkscape:groupmode="layer"
     id="layer1"
     transform="translate(-42.151896,-76.760854)">
    <g
       id="g1"
       transform="matrix(0.69734743,0,0,0.69734743,34.362533,36.209152)">
      <path
         style="fill:#5c3566;fill-opacity:1;stroke:none;stroke-width:0.310574;stroke-linecap:round;stroke-dasharray:0.310574, 0.310574;stroke-opacity:1;stop-color:#000000"
         d="M 15.546561,95.763966 C 14.72708,95.727648 13.671698,95.118357 13.069178,94.340454 12.608634,93.74556 12.3668,93.29736 12.153413,92.642309 c -0.1404,-0.430284 -0.182161,-0.653357 -0.166425,-0.884777 0.02422,-0.385502 0.303198,-0.979249 0.594898,-1.276639 0.661281,-0.67375 2.030572,-0.4672 3.607015,0.544668 1.240627,0.796058 1.890837,1.699475 1.888356,2.623532 -0.0012,0.479911 -0.06839,0.645005 -0.418183,1.032562 -0.711696,0.788615 -1.355852,1.118561 -2.11294,1.082373 z M 14.63134,92.283555 c 0.317721,-0.388527 0.448439,-0.925144 0.314089,-1.287831 -0.0702,-0.190027 -0.138588,-0.254784 -0.412736,-0.393975 -0.842719,-0.429075 -1.581887,-0.191843 -1.842482,0.590659 -0.253571,0.761142 -0.103484,1.245953 0.459941,1.48821 0.435731,0.187002 0.515011,0.187605 0.92363,0.0016 0.26265,-0.11922 0.423631,-0.234206 0.557375,-0.398209 z"
         id="path1207-7-0-3-2" />
      <path
         style="fill:#5c3566;fill-opacity:1;stroke:none;stroke-width:0.310574;stroke-linecap:round;stroke-dasharray:0.310574, 0.310574;stroke-opacity:1;stop-color:#000000"
         d="m 22.607723,96.917811 c 0.502907,-0.577952 1.102402,-1.527787 1.400215,-2.21824 0.427259,-0.990445 0.416971,-1.821968 -0.03025,-2.542922 -0.245705,-0.394582 -0.477489,-0.571295 -0.831217,-0.633989 -0.37703,-0.06657 -0.444811,-0.03632 -0.615232,0.291695 -0.171266,0.328616 -0.397607,0.525907 -0.872552,0.762051 l -0.35464,0.176107 0.176111,0.547086 c 0.143425,0.44602 0.179132,0.674478 0.191843,1.236752 0.03632,1.486574 -0.159165,2.240574 -0.717687,2.802125 -0.286252,0.288068 -0.300172,0.294724 -1.317667,0.672419 -0.711152,0.263859 -1.07039,0.373398 -1.164616,0.355243 -0.134956,-0.02422 -0.134956,-0.02422 -0.01816,-0.07202 0.263863,-0.102878 1.120862,-0.745645 1.431867,-1.075168 0.361293,-0.38308 0.610387,-0.884413 0.66316,-1.335881 0.05447,-0.488991 -0.0016,-1.214364 -0.124668,-1.539528 -0.164609,-0.435129 -0.542245,-1.060101 -0.800598,-1.325839 -0.237838,-0.244491 -0.280804,-0.219073 -0.263256,0.159166 0.03632,0.737415 -0.402448,1.881273 -0.949049,2.490211 -0.45207,0.50351 -0.887137,0.777356 -1.582129,0.996069 -0.928898,0.292307 -1.489783,0.232998 -2.606106,-0.275963 -1.248191,-0.568873 -2.105676,-1.574084 -2.706745,-3.172493 -0.513195,-1.363965 -0.418179,-2.18296 0.34072,-2.941073 0.347373,-0.34677 0.934404,-0.757268 1.252246,-0.875217 l 0.190028,-0.0702 -0.09078,-0.33467 c -0.111354,-0.410313 -0.07262,-0.788975 0.131325,-1.280203 0.187002,-0.450259 0.486568,-0.862025 0.83836,-1.153783 0.219077,-0.182161 0.274151,-0.274754 0.354033,-0.597922 0.05447,-0.210605 0.693482,-3.351266 1.425571,-6.979281 2.425032,-12.017075 3.044561,-14.89527 3.624689,-16.838333 0.361293,-1.209037 0.907592,-2.15645 1.555866,-2.696398 0.607119,-0.505931 1.654149,-0.85379 2.672552,-0.888408 1.484457,-0.04841 2.322331,0.355243 2.670009,1.293095 0.176111,0.474467 0.197291,0.890952 0.08836,1.70196 -0.214839,1.599862 -0.774456,3.402039 -2.589461,8.34155 -0.323771,0.881388 -0.573107,1.609728 -0.553743,1.618506 0.09562,0.04236 5.103154,-8.668413 6.133235,-10.671149 0.909408,-1.768102 1.322086,-2.322753 1.883272,-2.530997 0.263257,-0.09743 0.332248,-0.09683 0.590053,0.0058 0.757812,0.301989 2.073844,2.308595 2.355799,3.591765 0.217868,0.990989 0.07989,2.196637 -0.433916,3.786332 -0.248729,0.770159 -1.408805,3.27701 -2.001163,4.324643 -1.318572,2.332197 -3.337709,5.380871 -5.022783,7.583801 -0.329824,0.430891 -0.593077,0.800418 -0.585211,0.821297 0.0061,0.01816 0.260227,-0.160981 0.561006,-0.40487 1.176055,-0.951287 2.304235,-1.712245 3.477323,-2.345389 0.96055,-0.518643 3.497603,-1.462 4.244097,-1.578137 1.605309,-0.249939 2.626014,-0.101668 4.005831,0.582185 0.761323,0.377636 1.388291,0.801992 1.913775,1.295882 0.8383,0.787949 1.325776,1.630124 2.011325,3.475389 0.690152,1.85767 0.858456,2.968667 0.632056,4.172742 -0.266281,1.416796 -0.88163,2.532211 -1.791344,3.247538 -0.284437,0.223918 -0.764892,0.390949 -1.024818,0.355845 C 39.87538,87.160422 39.627742,86.782185 39.372172,85.694971 39.088945,84.491018 38.932809,84.007538 38.617569,83.365134 37.949263,82.002078 37.050444,81.133761 35.890913,80.730891 34.649922,80.3 33.319668,80.444032 31.166846,81.24348 c -2.049757,0.761201 -4.379836,1.944882 -6.050324,3.073611 -1.307865,0.883689 -3.12051,2.451781 -3.550192,3.071184 -0.205157,0.295332 -0.214839,0.334666 -0.143425,0.57432 0.06052,0.203341 0.109538,0.270516 0.2336,0.320143 0.179132,0.07141 0.171266,0.07686 0.976767,-0.686946 0.3619,-0.343139 0.479911,-0.421205 0.837452,-0.554952 0.33164,-0.124062 0.483542,-0.14948 0.745042,-0.122246 0.508354,0.05446 1.281174,0.443598 1.75001,0.886773 0.608571,0.575529 0.812945,0.941366 1.236087,2.21316 0.4321,1.297877 0.74595,1.955469 1.082734,2.267017 0.827832,0.765678 2.095692,1.034379 3.936781,0.834125 0.297148,-0.03025 0.340115,0.07928 0.105305,0.272939 -0.223919,0.185186 -1.537532,0.653051 -1.992146,0.709699 -0.940212,0.116798 -1.826324,-0.188215 -2.542136,-0.875885 -0.594893,-0.571292 -0.758113,-0.853548 -1.422424,-2.456681 -0.394578,-0.952802 -0.652993,-1.50939 -0.779113,-1.679568 -0.288671,-0.389736 -0.702436,-0.649482 -1.121164,-0.703888 -0.334059,-0.04236 -0.392761,-0.03025 -0.850526,0.162187 -0.367344,0.15614 -0.547086,0.266282 -0.711817,0.436945 -0.274147,0.284436 -0.324377,0.492015 -0.202131,0.836363 0.09501,0.267491 0.09865,0.270516 0.828861,0.599132 1.179142,0.530747 1.694274,1.114448 1.793583,2.032873 0.08896,0.823535 -0.133141,2.129764 -0.492015,2.893806 -0.356453,0.758599 -1.184887,1.459403 -2.144044,1.813558 l -0.433314,0.159768 0.351009,-0.403661 z m -5.243554,-1.162255 c 0.158559,-0.110748 0.373397,-0.294119 0.477488,-0.407289 0.275964,-0.300172 0.633324,-1.082252 0.670788,-1.468298 0.07323,-0.753996 -0.240863,-1.603434 -0.784318,-2.12014 -0.36069,-0.343139 -1.533841,-1.18628 -2.086433,-1.499586 -0.584002,-0.331035 -1.32953,-0.559794 -1.837763,-0.563425 -0.292302,-0.0023 -0.498672,0.03632 -0.857606,0.172479 -0.442995,0.164609 -0.492618,0.199102 -0.797811,0.542848 -0.423632,0.478702 -0.548902,0.828317 -0.524091,1.46267 0.01816,0.438154 0.05447,0.596709 0.295332,1.252911 0.316511,0.86384 0.535584,1.214301 1.084971,1.73712 0.384293,0.365531 1.446571,1.073235 1.803809,1.201288 0.850405,0.305013 1.849382,0.183374 2.555814,-0.310457 z M 40.736064,81.731088 c 0.561006,-0.355244 0.969688,-0.950986 1.021127,-1.48839 0.03025,-0.299566 -0.123459,-1.050298 -0.206366,-1.019433 -0.02422,0.0061 -0.02422,0.06294 -0.0061,0.119827 0.119827,0.323168 -0.493827,1.374676 -1.087997,1.863905 -0.358272,0.294725 -1.063733,0.626972 -1.432474,0.674114 -0.323168,0.04236 -0.301377,0.111355 0.06052,0.196082 0.515011,0.120429 1.113477,-0.0052 1.651664,-0.346168 z M 19.884092,88.04848 c 0.0031,-0.293516 -0.362503,-0.872978 -0.698018,-1.105792 -0.231182,-0.160375 -1.086306,-0.22755 -1.03196,-0.0811 0.0056,0.01816 0.174291,0.130718 0.374005,0.2566 0.35282,0.221495 1.200564,0.919877 1.237296,1.018947 0.03025,0.0823 0.117409,0.01816 0.118618,-0.08836 z m 3.054,-3.117544 c 0.03632,-0.317721 -0.06354,-0.612085 -0.283227,-0.825836 -0.179132,-0.174291 -0.366741,-0.200316 -0.660616,-0.09138 -0.223316,0.08291 -0.220287,0.15432 0.01209,0.206972 0.265069,0.06052 0.584605,0.40608 0.682466,0.738386 0.104091,0.353427 0.207575,0.341929 0.251148,-0.03025 z m 13.596486,-5.323319 c 0.547086,-0.536191 0.893371,-1.290915 0.98191,-2.14017 0.121036,-1.163284 -0.26265,-1.998258 -1.064641,-2.317188 -0.173082,-0.06899 -0.320746,-0.112564 -0.328009,-0.09743 -0.0061,0.01816 0.06838,0.124664 0.167634,0.243282 0.279595,0.33285 0.562822,1.025968 0.593688,1.454679 0.05446,0.735845 -0.179739,1.940585 -0.538614,2.784087 -0.17732,0.416974 -0.167031,0.420606 0.187605,0.07262 z m -17.41211,5.603278 c 1.676542,-1.348835 4.783011,-4.535855 6.660049,-6.832767 1.876009,-2.295645 3.050126,-4.068955 4.651201,-7.024975 2.41408,-4.457056 3.19531,-6.247493 3.410332,-7.815283 0.103485,-0.754787 0.05446,-1.109545 -0.236022,-1.755701 -0.635562,-1.406203 -1.192816,-1.980523 -2.015021,-2.076685 -0.343745,-0.04236 -0.440573,0.02419 -0.904024,0.60706 -1.312584,1.648941 -2.997716,4.541299 -8.286601,14.223455 -3.543832,6.487506 -4.722187,8.631613 -5.537492,10.075823 -0.350398,0.620374 -0.62473,1.133511 -0.610023,1.140289 0.04236,0.01816 1.133691,-0.76695 1.590422,-1.147431 0.231182,-0.192446 0.706311,-0.626546 1.056106,-0.964421 0.349795,-0.337691 0.662315,-0.615169 0.694629,-0.616257 0.08049,-0.0027 -0.243282,0.603366 -0.832912,1.558469 -0.271729,0.43997 -0.567663,0.946023 -0.657717,1.124674 l -0.164002,0.324984 0.237838,-0.126484 c 0.130718,-0.0696 0.555559,-0.38187 0.943722,-0.694629 z m 7.949696,-3.222969 c 0.260228,-0.481727 0.200316,-0.977128 -0.179136,-1.481913 -0.242072,-0.321959 -0.596106,-0.4672 -0.958249,-0.39095 -0.143425,0.03025 -0.295327,0.09502 -0.337084,0.14343 -0.06536,0.07686 -0.03025,0.09986 0.237834,0.16824 0.662558,0.167032 0.976709,0.739595 0.978525,1.782751 2.39e-4,0.140404 0.115589,0.04236 0.257805,-0.221496 z m 5.068716,-2.441313 c 0.340114,-0.767795 0.294725,-1.360814 -0.148873,-1.943665 -0.496254,-0.652089 -1.061675,-0.857489 -1.704563,-0.618922 -0.302591,0.112563 -0.462359,0.251152 -0.286252,0.248729 0.334666,-0.0046 1.009993,0.432707 1.427022,0.923936 0.347983,0.409707 0.550718,1.045938 0.479308,1.504423 -0.02422,0.171873 -0.02422,0.303804 0.0061,0.292307 0.03025,-0.01209 0.132535,-0.194266 0.226341,-0.406686 z m -13.648648,0.984755 c 1.540615,-2.781543 2.469994,-4.526712 2.623106,-4.925771 0.130115,-0.340113 0.491409,-1.210366 0.802598,-1.934409 1.102159,-2.566099 3.122384,-8.031755 3.687081,-9.975182 0.419996,-1.445968 0.634232,-2.749351 0.548902,-3.339407 -0.06415,-0.440573 -0.243888,-0.666186 -0.732879,-0.917639 -0.716963,-0.368557 -1.268949,-0.337691 -2.591093,0.144638 -0.755632,0.275964 -0.909229,0.350402 -1.232033,0.599739 -0.777845,0.599738 -1.233489,1.328257 -1.593874,2.548608 -0.486568,1.647794 -1.25515,5.066841 -2.45402,10.916068 -0.412736,2.013989 -1.101494,5.371367 -1.530448,7.460885 -0.429078,2.089517 -0.786983,3.837289 -0.795635,3.883949 -0.0061,0.04841 0.0041,0.07625 0.03025,0.06536 0.02419,-0.01209 0.104694,-0.200922 0.179132,-0.423024 0.181555,-0.542245 1.041219,-2.458074 1.092662,-2.434472 0.06052,0.03025 -0.135564,1.042248 -0.378846,1.956921 -0.211211,0.794242 -0.24026,1.011867 -0.10712,0.793518 0.03632,-0.06173 1.142285,-2.050727 2.454568,-4.420019 z"
         id="path1246-9-7-7-9" />
      <path
         style="fill:#ad7fa8;fill-opacity:1;stroke:#5c3566;stroke-width:0;stroke-linecap:round;stroke-linejoin:round;paint-order:markers stroke fill"
         d="m 15.98572,84.951478 c -6.5e-5,-0.02066 0.07539,-0.337272 0.167679,-0.703579 0.320573,-1.272408 0.454749,-2.049705 0.353815,-2.049705 -0.06982,0 -0.884287,1.826476 -1.192206,2.673586 -0.01407,0.0387 -0.02724,0.0453 -0.02928,0.01467 -0.002,-0.03064 0.501672,-2.521284 1.119351,-5.534788 2.097291,-10.232165 2.635925,-12.753427 3.24068,-15.169135 0.574298,-2.294043 0.871567,-2.949154 1.685811,-3.715136 0.4522,-0.425398 0.848392,-0.636898 1.775343,-0.947732 1.098138,-0.36824 1.580296,-0.390593 2.189065,-0.10149 0.758651,0.360282 0.930983,0.721123 0.82114,1.719361 -0.113985,1.035868 -0.385564,2.138411 -0.924373,3.752718 -0.902247,2.703185 -2.189908,6.111924 -3.434115,9.090899 -0.337413,0.807861 -0.613478,1.479204 -0.613478,1.491876 0,0.07298 -0.896162,1.788985 -1.760705,3.371466 -1.370228,2.508097 -3.398586,6.152744 -3.398729,6.106992 z"
         id="path4" />
      <path
         style="fill:#ad7fa8;fill-opacity:1;stroke:#5c3566;stroke-width:0;stroke-linecap:round;stroke-linejoin:round;paint-order:markers stroke fill"
         d="m 18.147758,85.680889 c 0.08367,-0.148336 0.355496,-0.60742 0.604059,-1.020183 0.730782,-1.21353 0.961829,-1.665127 0.851917,-1.665127 -0.02573,0 -0.412359,0.339781 -0.859177,0.755068 -0.704473,0.654762 -2.284633,1.917852 -2.399898,1.918345 -0.0218,9.4e-5 0.01229,-0.08953 0.07576,-0.199173 0.323301,-0.558509 2.351478,-4.242229 5.029396,-9.134751 5.376529,-9.822848 6.916328,-12.546285 8.219123,-14.537142 0.528073,-0.806972 1.217271,-1.721565 1.453774,-1.929217 0.160546,-0.140962 0.186666,-0.148214 0.455278,-0.126401 0.744102,0.06043 1.361619,0.668265 1.93606,1.905718 0.305593,0.658302 0.359861,0.911959 0.327391,1.530187 -0.06561,1.249196 -0.628467,2.773775 -2.034726,5.511338 -2.444392,4.758498 -3.912091,7.092838 -6.178391,9.826598 -1.512996,1.825075 -3.984798,4.416004 -5.609332,5.879672 -0.79759,0.718611 -1.862788,1.554774 -1.980646,1.554774 -0.02349,0 0.02574,-0.121369 0.109412,-0.269706 z"
         id="path5" />
      <path
         style="fill:#ad7fa8;fill-opacity:1;stroke:#5c3566;stroke-width:0;stroke-linecap:round;stroke-linejoin:round;paint-order:markers stroke fill"
         d="m 26.827908,82.242166 c -0.0054,-0.01452 -0.01306,-0.121365 -0.0171,-0.237455 -0.02592,-0.745888 -0.244096,-1.222547 -0.670942,-1.465793 -0.08287,-0.04722 -0.16494,-0.07707 -0.417195,-0.151703 -0.05569,-0.01648 -0.113336,-0.03974 -0.128103,-0.0517 l -0.02685,-0.02176 0.02624,-0.03687 c 0.03283,-0.0461 0.159838,-0.108318 0.294466,-0.144255 0.138471,-0.03698 0.331955,-0.03722 0.460741,-7.83e-4 0.248152,0.07053 0.43549,0.218885 0.60924,0.482463 0.2691,0.408224 0.331388,0.780299 0.19567,1.168818 -0.05673,0.16241 -0.17321,0.364361 -0.257908,0.447171 -0.04611,0.04508 -0.05531,0.04665 -0.06826,0.01166 z"
         id="path6" />
      <path
         style="fill:#ad7fa8;fill-opacity:1;stroke:#5c3566;stroke-width:0;stroke-linecap:round;stroke-linejoin:round;paint-order:markers stroke fill"
         d="m 22.77929,85.147344 c -0.01495,-0.02904 -0.0542,-0.12565 -0.08722,-0.214733 -0.07509,-0.202605 -0.188529,-0.375038 -0.339799,-0.516534 -0.112768,-0.10548 -0.323396,-0.223714 -0.399382,-0.224192 -0.02011,-1.01e-4 -0.05511,-0.01377 -0.07778,-0.03037 -0.03923,-0.02869 -0.03917,-0.0319 0.0014,-0.06672 0.112052,-0.09623 0.391217,-0.156117 0.540444,-0.115934 0.137143,0.03694 0.318488,0.209204 0.404584,0.384348 0.09978,0.202993 0.130915,0.400123 0.09629,0.609757 -0.03647,0.220818 -0.08385,0.280468 -0.138522,0.174373 z"
         id="path7" />
      <path
         style="fill:#ad7fa8;fill-opacity:1;stroke:#5c3566;stroke-width:0;stroke-linecap:round;stroke-linejoin:round;paint-order:markers stroke fill"
         d="m 19.609015,87.968003 c -0.228685,-0.233135 -0.725712,-0.627552 -1.131393,-0.897817 -0.224232,-0.14939 -0.314786,-0.222142 -0.297646,-0.239142 0.01458,-0.01448 0.136539,-0.0234 0.298828,-0.02188 0.284296,0.0027 0.499198,0.04366 0.659753,0.125877 0.09738,0.04987 0.357716,0.314856 0.467254,0.475606 0.102123,0.149868 0.236319,0.436194 0.253205,0.540246 0.01679,0.103457 -0.0063,0.205599 -0.04524,0.200327 -0.01588,-0.002 -0.108021,-0.08459 -0.204762,-0.183221 z"
         id="path8" />
      <path
         style="fill:#ad7fa8;fill-opacity:1;stroke:#5c3566;stroke-width:0;stroke-linecap:round;stroke-linejoin:round;paint-order:markers stroke fill"
         d="m 31.914209,79.589102 c 0.01125,-0.288706 0.0063,-0.362209 -0.03641,-0.539979 -0.106598,-0.443821 -0.314581,-0.797976 -0.665473,-1.133166 -0.381841,-0.364757 -0.864369,-0.655345 -1.134516,-0.683229 -0.06943,-0.0072 -0.126245,-0.02047 -0.126245,-0.02955 0,-0.09993 0.560395,-0.305671 0.830453,-0.304888 0.334783,7.83e-4 0.655046,0.150431 0.953736,0.445085 0.21809,0.215144 0.361613,0.411546 0.468373,0.640943 0.208656,0.448341 0.185997,0.958386 -0.06813,1.53356 -0.08901,0.201458 -0.202163,0.405437 -0.22491,0.405437 -0.0054,0 -0.004,-0.150388 0.0031,-0.334196 z"
         id="path9" />
      <path
         style="fill:#ad7fa8;fill-opacity:1;stroke:#5c3566;stroke-width:0;stroke-linecap:round;stroke-linejoin:round;paint-order:markers stroke fill"
         d="m 36.260293,79.808394 c 0,-0.01378 0.05133,-0.154496 0.114063,-0.312719 0.33629,-0.848162 0.519355,-1.729742 0.518991,-2.499275 -2.08e-4,-0.39851 -0.03761,-0.592827 -0.187691,-0.97429 -0.117733,-0.299265 -0.24032,-0.520451 -0.41924,-0.756435 -0.07703,-0.101605 -0.136217,-0.188579 -0.131517,-0.193279 0.01769,-0.01769 0.264712,0.07596 0.444788,0.168632 0.31201,0.160575 0.585309,0.45647 0.734827,0.795597 0.390661,0.886049 0.157139,2.351776 -0.513097,3.220527 -0.209489,0.271541 -0.561124,0.616977 -0.561124,0.551242 z"
         id="path10-0" />
      <path
         style="fill:#ad7fa8;fill-opacity:1;stroke:#5c3566;stroke-width:0;stroke-linecap:round;stroke-linejoin:round;paint-order:markers stroke fill"
         d="m 39.146714,82.078883 c -0.152372,-0.0299 -0.330099,-0.09246 -0.330099,-0.116195 0,-0.01135 0.03958,-0.02986 0.08795,-0.04108 0.377202,-0.08757 0.518064,-0.130949 0.737192,-0.227006 0.315885,-0.138467 0.639393,-0.329023 0.847129,-0.498977 0.295766,-0.241975 0.678509,-0.744651 0.891023,-1.170228 0.154172,-0.308735 0.188595,-0.430933 0.174984,-0.621184 -0.0063,-0.08857 -0.0027,-0.161032 0.0081,-0.161032 0.05376,0 0.184881,0.632882 0.185069,0.893309 3.09e-4,0.398052 -0.283704,0.957216 -0.662123,1.303688 -0.354539,0.324609 -0.822686,0.560169 -1.271058,0.639566 -0.162637,0.0288 -0.519367,0.02833 -0.668189,-7.82e-4 z"
         id="path11-9" />
      <path
         style="fill:#888a85;fill-opacity:1;stroke:#5c3566;stroke-width:0;stroke-linecap:round;stroke-linejoin:round;paint-order:markers stroke fill"
         d="m 14.869461,95.582759 c -1.331751,-0.495005 -2.380038,-1.750288 -2.78645,-3.336667 -0.09583,-0.374048 -0.09389,-0.422939 0.03331,-0.841714 0.244177,-0.803901 0.799281,-1.266271 1.523798,-1.269242 1.183242,-0.0049 3.116086,1.065377 3.890839,2.154387 0.347882,0.488991 0.49676,0.913698 0.49676,1.417122 0,0.318832 -0.03506,0.437238 -0.205762,0.694957 -0.252308,0.380912 -0.760291,0.833158 -1.211986,1.079004 -0.451419,0.245692 -1.231199,0.291457 -1.740505,0.102153 z m -0.807157,-2.854115 c 0.707838,-0.303413 1.141203,-1.153019 0.892158,-1.749067 -0.205427,-0.491655 -1.217398,-0.775833 -1.752807,-0.492215 -0.448568,0.237619 -0.780963,1.102888 -0.624408,1.62542 0.08719,0.291019 0.213048,0.422305 0.580727,0.605777 0.329002,0.164171 0.539391,0.166519 0.90433,0.0101 z"
         id="path12-3" />
      <path
         style="fill:#888a85;fill-opacity:1;stroke:#5c3566;stroke-width:0;stroke-linecap:round;stroke-linejoin:round;paint-order:markers stroke fill"
         d="m 13.189238,92.64162 c -0.40691,-0.211446 -0.568976,-0.452877 -0.562528,-0.838003 0.01128,-0.67332 0.342364,-1.194143 0.849364,-1.336093 0.246338,-0.06897 0.351542,-0.06477 0.665785,0.02657 0.205268,0.05967 0.469543,0.194618 0.587278,0.299879 0.193152,0.172694 0.213729,0.226967 0.210663,0.555657 -0.0044,0.470358 -0.271573,0.924471 -0.699652,1.189133 -0.426577,0.263734 -0.691411,0.289649 -1.05091,0.102842 z"
         id="path13-6" />
      <path
         style="fill:#2e3436;fill-opacity:1;stroke:#5c3566;stroke-width:0;stroke-linecap:round;stroke-linejoin:round;paint-order:markers stroke fill"
         d="m 14.530468,95.376076 c -1.095345,-0.549782 -1.933563,-1.583984 -2.332565,-2.877956 -0.175195,-0.56816 -0.175303,-0.740025 -7.44e-4,-1.206552 0.268741,-0.718274 0.776579,-1.103611 1.450199,-1.100391 0.527281,0.0023 0.930586,0.111183 1.63934,0.441681 1.699007,0.792258 2.671806,1.886094 2.687917,3.022348 0.0068,0.479226 -0.189607,0.840148 -0.709184,1.303238 -0.571521,0.509392 -0.889187,0.642854 -1.592552,0.669101 -0.586414,0.02188 -0.606678,0.01741 -1.142401,-0.251469 z M 14.330367,92.61349 c 0.549766,-0.386391 0.868024,-1.234311 0.631252,-1.681818 -0.19258,-0.363982 -0.96752,-0.665923 -1.468096,-0.572015 -0.498473,0.09351 -0.893282,0.631837 -0.953931,1.300683 -0.04606,0.50794 0.0908,0.787359 0.499577,1.019953 0.420915,0.239502 0.889902,0.215238 1.291198,-0.0668 z"
         id="path14-0" />
      <path
         style="fill:#ad7fa8;fill-opacity:1;stroke:#5c3566;stroke-width:0;stroke-linecap:round;stroke-linejoin:round;paint-order:markers stroke fill"
         d=""
         id="path15-6" />
      <path
         style="fill:#ad7fa8;fill-opacity:1;stroke:#5c3566;stroke-width:0;stroke-linecap:round;stroke-linejoin:round;paint-order:markers stroke fill"
         d=""
         id="path16-2" />
      <path
         style="fill:#ad7fa8;fill-opacity:1;stroke:#5c3566;stroke-width:0;stroke-linecap:round;stroke-linejoin:round;paint-order:markers stroke fill"
         d="m 19.683287,84.712853 c 0.0015,-0.0091 0.0718,-0.0773 0.156167,-0.151656 1.572952,-1.386224 4.177921,-4.101332 5.759255,-6.002751 0.908898,-1.092869 1.662587,-2.092707 2.389216,-3.169507 0.119105,-0.176503 0.165082,-0.238387 0.177114,-0.238387 0.01841,0 0.0099,0.01335 -0.264898,0.414588 -0.671529,0.980571 -1.478468,2.039804 -2.359302,3.096954 -1.586528,1.904104 -3.98821,4.403814 -5.684802,5.916835 -0.173688,0.154896 -0.176666,0.157205 -0.17275,0.133924 z"
         id="path17-6" />
      <path
         style="fill:#ad7fa8;fill-opacity:1;stroke:#5c3566;stroke-width:0;stroke-linecap:round;stroke-linejoin:round;paint-order:markers stroke fill"
         d="m 31.904157,79.942537 c 3.11e-4,-0.01252 0.0412,-0.04668 0.0412,-0.03436 0,0.004 -0.0093,0.01601 -0.02073,0.02669 -0.01419,0.01335 -0.02065,0.01577 -0.02047,0.0077 z"
         id="path18-1" />
      <path
         style="fill:#ad7fa8;fill-opacity:1;stroke:#5c3566;stroke-width:0;stroke-linecap:round;stroke-linejoin:round;paint-order:markers stroke fill"
         d="m 28.162795,75.152564 c -0.01102,-0.0023 0.0046,-0.03142 0.07383,-0.137254 1.005882,-1.537683 1.978868,-3.245726 3.301655,-5.795952 0.818676,-1.578338 1.303338,-2.598537 1.65318,-3.479897 0.277306,-0.698604 0.44759,-1.250041 0.561398,-1.817958 0.0063,-0.03169 0.01358,-0.04768 0.02156,-0.04768 0.0082,0 0.01068,0.006 0.0078,0.01866 -0.0023,0.01026 -0.01757,0.08209 -0.03389,0.159615 -0.27353,1.298319 -0.98112,2.9136 -2.655192,6.061242 -1.154023,2.16983 -1.868124,3.420646 -2.615433,4.581171 -0.24902,0.386711 -0.300248,0.461224 -0.314922,0.458054 z"
         id="path19-8" />
      <path
         style="fill:#ad7fa8;fill-opacity:1;stroke:#5c3566;stroke-width:0;stroke-linecap:round;stroke-linejoin:round;paint-order:markers stroke fill"
         d="m 22.482438,74.418845 v -0.02415 l 0.39247,-0.717612 c 1.331069,-2.433785 2.580402,-4.699762 3.271181,-5.933099 l 0.05341,-0.09535 0.0154,-0.0013 c 0.0085,-7.43e-4 0.0154,-2.07e-4 0.0154,0.0012 0,0.0014 -0.06317,0.115747 -0.140383,0.254184 -0.721627,1.293873 -1.892621,3.416077 -3.171114,5.747037 -0.23825,0.434381 -0.433897,0.790563 -0.43477,0.791514 -8.22e-4,7.83e-4 -0.0016,-0.0092 -0.0016,-0.02242 z"
         id="path20" />
      <path
         style="fill:#ad7fa8;fill-opacity:1;stroke:#5c3566;stroke-width:0;stroke-linecap:round;stroke-linejoin:round;paint-order:markers stroke fill"
         d=""
         id="path21-7" />
      <path
         style="fill:#ad7fa8;fill-opacity:1;stroke:#5c3566;stroke-width:0;stroke-linecap:round;stroke-linejoin:round;paint-order:markers stroke fill"
         d="m 15.232398,85.048059 c -0.0033,-0.0062 -0.0061,-0.02043 -0.0061,-0.03158 0,-0.02364 0.06366,-0.335805 0.893885,-4.383006 0.343565,-1.674832 0.624665,-3.046146 0.624665,-3.047363 0,-0.0012 0.004,-0.0023 0.0088,-0.0023 0.0048,0 0.0088,0.0027 0.0088,0.0058 0,0.0031 -0.08325,0.411503 -0.184997,0.907319 -0.778837,3.795219 -1.292511,6.334631 -1.292511,6.389682 0,0.01385 0.0027,0.02019 0.0086,0.02019 0.01151,0 0.01361,-0.0045 0.05892,-0.126097 0.292681,-0.785543 1.011454,-2.404228 1.137614,-2.561918 0.02381,-0.02974 0.02022,-0.01389 -0.0072,0.03201 -0.07299,0.122015 -0.296026,0.590882 -0.510405,1.07295 -0.265974,0.598094 -0.452305,1.050278 -0.555684,1.348521 -0.07904,0.22802 -0.150116,0.386966 -0.173044,0.386966 -0.0029,0 -0.008,-0.0051 -0.0113,-0.01135 z"
         id="path22-9" />
      <path
         style="fill:#ad7fa8;fill-opacity:1;stroke:#5c3566;stroke-width:0;stroke-linecap:round;stroke-linejoin:round;paint-order:markers stroke fill"
         d="m 15.967336,85.021639 c -0.0076,-0.0198 0.0033,-0.118814 0.02423,-0.219696 0.02312,-0.111573 0.08732,-0.371006 0.178374,-0.720829 0.10539,-0.40489 0.196432,-0.79778 0.26717,-1.152961 0.03561,-0.178791 0.08407,-0.454755 0.08577,-0.488431 6.26e-4,-0.01319 0.0012,-0.0137 0.0033,-0.0031 0.0061,0.03111 -0.03512,0.291214 -0.08893,0.561816 -0.07034,0.353744 -0.133231,0.627094 -0.296074,1.286955 -0.101359,0.410721 -0.145733,0.596564 -0.155391,0.650809 l -0.0036,0.02051 0.01189,-0.0137 c 0.08911,-0.102643 2.965049,-5.289362 3.890352,-7.016189 0.199518,-0.372349 0.182417,-0.342994 0.199823,-0.342994 0.0079,0 0.01441,0.0012 0.01441,0.0023 0,0.0085 -0.660702,1.222739 -1.043411,1.917633 -0.07637,0.138663 -0.234741,0.42625 -0.351939,0.639081 -0.309879,0.56274 -1.093669,1.977838 -1.764984,3.186609 -0.951198,1.712726 -0.920589,1.658458 -0.952209,1.688165 -0.01342,0.0126 -0.01516,0.01295 -0.01871,0.0035 z"
         id="path23-2" />
      <path
         style="fill:#ad7fa8;fill-opacity:1;stroke:#5c3566;stroke-width:0;stroke-linecap:round;stroke-linejoin:round;paint-order:markers stroke fill"
         d="m 16.267237,85.723398 c 0.01538,-0.03694 0.130981,-0.258784 0.228367,-0.438268 0.118141,-0.217735 0.165168,-0.30234 0.45462,-0.817907 0.738029,-1.314553 1.766462,-3.18149 3.567313,-6.475822 0.121632,-0.222506 0.222033,-0.405449 0.223112,-0.406537 0.0011,-0.0012 0.0061,-0.0012 0.01116,0 0.0072,0.0016 0.0012,0.01651 -0.02805,0.06941 -0.02049,0.0371 -0.271512,0.494845 -0.557832,1.017253 -1.87426,3.419673 -3.24933,5.914311 -3.681036,6.678098 -0.106362,0.18818 -0.140348,0.25662 -0.147758,0.297555 -0.0036,0.0198 -0.0027,0.02199 0.0086,0.02199 0.04374,0 0.257764,-0.148297 0.633675,-0.439069 0.618978,-0.478792 1.318366,-1.064368 1.799979,-1.507073 0.254081,-0.233553 0.275908,-0.253508 0.366446,-0.335026 0.168614,-0.151808 0.237968,-0.212103 0.240762,-0.209309 0.0015,0.0016 -0.03484,0.03679 -0.08086,0.07832 -0.110542,0.09974 -0.229914,0.211368 -0.394423,0.368831 -0.505867,0.484193 -0.902573,0.843005 -1.169694,1.057969 -0.410068,0.329997 -1.171286,0.883575 -1.4162,1.029901 -0.06427,0.03839 -0.07056,0.03945 -0.05817,0.0097 z"
         id="path24" />
      <path
         style="fill:#ad7fa8;fill-opacity:1;stroke:#5c3566;stroke-width:0;stroke-linecap:round;stroke-linejoin:round;paint-order:markers stroke fill"
         d="m 17.952682,86.0188 c 0,-0.0058 0.219382,-0.430527 0.254793,-0.49328 0.149522,-0.264982 0.334122,-0.57524 0.613972,-1.031913 0.534826,-0.872754 0.825935,-1.416017 0.785125,-1.46519 -0.0043,-0.0052 -0.01,-0.0094 -0.01262,-0.0094 -0.0027,0 -0.02243,0.01331 -0.04395,0.02959 -0.05481,0.04148 -0.05428,0.03178 6.26e-4,-0.01186 0.05665,-0.04502 0.06932,-0.04552 0.07182,-0.0027 0.0047,0.08062 -0.121375,0.338791 -0.413659,0.846973 -0.116948,0.203333 -0.225622,0.387013 -0.520337,0.879467 -0.305762,0.510917 -0.458177,0.769027 -0.541558,0.917114 -0.05986,0.10631 -0.107965,0.21109 -0.115294,0.251113 -0.0038,0.02086 -0.0032,0.02199 0.01143,0.02199 0.06258,0 0.408454,-0.244973 0.887689,-0.62873 0.244874,-0.196089 0.525184,-0.428511 0.682094,-0.565565 0.03435,-0.03002 0.06373,-0.05455 0.06528,-0.05455 0.0016,0 0.0041,0.0065 0.0056,0.01452 0.0024,0.01272 -0.01002,0.02563 -0.100455,0.103981 -0.438081,0.37964 -0.997671,0.816972 -1.30224,1.017734 -0.07604,0.05012 -0.328335,0.189065 -0.328335,0.180815 z"
         id="path25" />
      <path
         style="fill:#ad7fa8;fill-opacity:1;stroke:#5c3566;stroke-width:0;stroke-linecap:round;stroke-linejoin:round;paint-order:markers stroke fill"
         d="m 19.558779,87.341876 c -0.0737,-0.09761 -0.263095,-0.292909 -0.352973,-0.36397 -0.151014,-0.119397 -0.434665,-0.17806 -0.819253,-0.169431 -0.154347,0.0035 -0.206416,0.01033 -0.209742,0.02775 -0.0034,0.01757 0.07635,0.08473 0.208272,0.175453 0.02983,0.02051 0.05289,0.03863 0.05126,0.04027 -0.0041,0.0041 -0.237618,-0.152829 -0.263059,-0.176823 -0.01535,-0.01448 -0.01984,-0.02282 -0.01738,-0.03221 0.02766,-0.10577 0.696463,-0.05821 0.966471,0.06873 0.112306,0.0528 0.282038,0.213054 0.42451,0.400803 0.02388,0.03146 0.04205,0.05856 0.0404,0.06021 -0.0016,0.0016 -0.01448,-0.01217 -0.02851,-0.03076 z"
         id="path26" />
      <path
         style="fill:#ad7fa8;fill-opacity:1;stroke:#5c3566;stroke-width:0;stroke-linecap:round;stroke-linejoin:round;paint-order:markers stroke fill"
         d="m 19.792238,88.166385 c -0.0093,-0.0054 -0.02785,-0.03452 -0.02785,-0.04364 0,-0.002 0.0098,0.0045 0.02186,0.01436 0.0253,0.02086 0.03685,0.02242 0.05093,0.0068 0.02777,-0.03068 0.03727,-0.149206 0.01795,-0.224032 -0.02039,-0.07898 -0.117798,-0.29485 -0.185761,-0.411659 -0.01281,-0.02203 -0.02195,-0.04137 -0.02031,-0.04301 0.005,-0.005 0.08418,0.133345 0.127048,0.222103 0.09215,0.190782 0.1263,0.35743 0.08845,0.43161 -0.01213,0.02375 -0.04315,0.05388 -0.05518,0.05357 -0.0038,-9.8e-5 -0.0115,-0.0027 -0.01714,-0.0061 z"
         id="path27" />
      <path
         style="fill:#ad7fa8;fill-opacity:1;stroke:#5c3566;stroke-width:0;stroke-linecap:round;stroke-linejoin:round;paint-order:markers stroke fill"
         d=""
         id="path28" />
      <path
         style="fill:#ad7fa8;fill-opacity:1;stroke:#5c3566;stroke-width:0;stroke-linecap:round;stroke-linejoin:round;paint-order:markers stroke fill"
         d=""
         id="path29" />
      <path
         style="fill:#ad7fa8;fill-opacity:1;stroke:#5c3566;stroke-width:0;stroke-linecap:round;stroke-linejoin:round;paint-order:markers stroke fill"
         d="m 16.74719,77.573652 c 0.0017,-0.0056 0.183811,-0.891485 0.404676,-1.968544 0.707956,-3.452355 0.861628,-4.19488 1.149113,-5.552379 0.206582,-0.975481 0.192311,-0.911717 0.204052,-0.911717 0.0058,0 0.01051,0.002 0.01051,0.0044 0,0.0024 -0.01327,0.06643 -0.02949,0.142181 -0.262184,1.224424 -0.989299,4.726504 -1.583417,7.626382 -0.121481,0.592945 -0.138456,0.669833 -0.147888,0.66986 -0.0074,2.4e-5 -0.0097,-0.0031 -0.0075,-0.01021 z"
         id="path30" />
      <path
         style="fill:#ad7fa8;fill-opacity:1;stroke:#5c3566;stroke-width:0;stroke-linecap:round;stroke-linejoin:round;paint-order:markers stroke fill"
         d="m 27.743599,64.946345 c -7e-5,-0.02401 2.07e-4,-0.02447 0.114553,-0.221804 1.390963,-2.399658 2.237321,-3.701812 3.001048,-4.617226 0.235782,-0.282611 0.34931,-0.373634 0.501819,-0.402339 0.03001,-0.0056 0.05251,-0.0066 0.117927,-0.0048 0.11036,0.0031 0.228015,0.02008 0.348969,0.05053 0.685008,0.172476 1.190441,0.745083 1.759952,1.993858 0.311331,0.68266 0.360422,1.040367 0.24982,1.820348 -0.01821,0.128448 -0.05057,0.320174 -0.05287,0.31328 -0.0023,-0.007 -0.01654,-0.0051 -0.02118,0.0028 -0.0065,0.01118 -0.0056,0.0032 0.0099,-0.08719 0.05503,-0.32012 0.08026,-0.633253 0.07553,-0.937529 -0.0029,-0.183902 -0.01154,-0.275611 -0.03866,-0.408713 -0.04822,-0.236645 -0.157592,-0.520543 -0.367345,-0.953548 -0.193195,-0.398824 -0.422497,-0.769577 -0.633336,-1.024026 -0.34768,-0.419594 -0.717031,-0.654637 -1.127149,-0.717279 -0.08531,-0.01303 -0.210984,-0.0217 -0.284519,-0.01964 -0.07448,0.0021 -0.106765,0.01002 -0.153796,0.03779 -0.05922,0.03496 -0.154321,0.119975 -0.238829,0.21349 -0.313833,0.347284 -0.885122,1.120652 -1.334162,1.806089 -0.525749,0.802528 -1.078097,1.710615 -1.781605,2.929048 -0.07175,0.124272 -0.133965,0.231546 -0.13825,0.238386 l -0.0078,0.01244 z"
         id="path31" />
      <path
         style="fill:#ad7fa8;fill-opacity:1;stroke:#5c3566;stroke-width:0;stroke-linecap:round;stroke-linejoin:round;paint-order:markers stroke fill"
         d="m 22.817701,85.211517 c -0.01832,-0.0079 -0.04466,-0.04189 -0.06539,-0.0842 -0.0204,-0.04166 -0.03555,-0.08272 -0.06682,-0.18114 -0.0204,-0.06422 -0.0419,-0.116019 -0.07182,-0.173027 -0.13079,-0.249219 -0.352941,-0.464911 -0.55411,-0.537995 -0.01026,-0.0039 -0.03768,-0.01158 -0.06093,-0.01745 -0.11414,-0.02884 -0.163867,-0.05499 -0.167604,-0.08814 -0.0041,-0.03636 0.06189,-0.07925 0.192258,-0.124915 0.104186,-0.03651 0.195278,-0.0545 0.275722,-0.0545 0.137366,0 0.250246,0.05129 0.364529,0.165647 0.123493,0.123564 0.208299,0.273345 0.251104,0.443484 0.0094,0.03726 0.01863,0.08918 0.02388,0.134013 0.0046,0.0391 0.0064,0.141688 0.0032,0.183457 -0.0013,0.01765 -0.0032,0.04286 -0.0042,0.05597 -0.004,0.05282 -0.02068,0.141304 -0.03552,0.187941 -0.01565,0.04916 -0.03629,0.08331 -0.05513,0.09118 -0.0086,0.0035 -0.02051,0.0035 -0.02914,-3.09e-4 z m 0.02367,-0.01569 c 0.02898,-0.01401 0.05504,-0.08912 0.0773,-0.222685 0.02107,-0.126457 0.01711,-0.256146 -0.01155,-0.378309 -0.02314,-0.09864 -0.07194,-0.218796 -0.119962,-0.29539 -0.09196,-0.146666 -0.231973,-0.272982 -0.34906,-0.314903 -0.06244,-0.02235 -0.160793,-0.02505 -0.26606,-0.0073 -0.136029,0.02293 -0.252084,0.07189 -0.311999,0.131599 -0.0219,0.02184 -0.021,0.02716 0.0082,0.04884 0.02806,0.02082 0.05535,0.03209 0.08522,0.03518 0.03755,0.0039 0.07115,0.01561 0.134042,0.04663 0.107575,0.05307 0.208069,0.12286 0.284743,0.197732 0.137933,0.134699 0.239884,0.292056 0.314318,0.485144 0.0847,0.219723 0.104896,0.261765 0.131539,0.273866 0.01068,0.0049 0.01245,0.0048 0.02323,-3.91e-4 z"
         id="path32" />
      <path
         style="fill:#ad7fa8;fill-opacity:1;stroke:#5c3566;stroke-width:0;stroke-linecap:round;stroke-linejoin:round;paint-order:markers stroke fill"
         d="m 31.945482,79.91126 c 0.0015,-0.0061 -0.0017,-0.0085 -0.0075,-0.0053 -0.0069,0.0035 -0.0071,7.83e-4 -4.31e-4,-0.0077 0.04429,-0.05661 0.159614,-0.282276 0.226424,-0.443073 0.08883,-0.213782 0.147372,-0.428034 0.169964,-0.62199 0.0089,-0.07625 0.01121,-0.117675 0.01132,-0.201075 1.04e-4,-0.102103 -0.0047,-0.16596 -0.01969,-0.258079 -0.04957,-0.305339 -0.20372,-0.608442 -0.450678,-0.886179 -0.18994,-0.213609 -0.373322,-0.362929 -0.563842,-0.45911 -0.21892,-0.110525 -0.449387,-0.152513 -0.65919,-0.120105 -0.172328,0.02661 -0.401439,0.09875 -0.553214,0.174169 -0.08467,0.04207 -0.134201,0.0791 -0.145544,0.108803 -0.0026,0.0069 -0.0031,0.01053 -0.0015,0.01299 0.0057,0.0092 0.04895,0.01949 0.118848,0.02833 0.04553,0.0058 0.07542,0.01166 0.115047,0.02281 0.187549,0.05262 0.439959,0.190908 0.692358,0.379311 0.19762,0.147515 0.386743,0.321716 0.5266,0.48505 0.232092,0.271052 0.382747,0.56564 0.469325,0.917709 0.02733,0.111143 0.03942,0.186063 0.0424,0.262822 l 0.0011,0.02798 -0.003,-0.02696 C 31.871565,78.920412 31.716533,78.53059 31.487591,78.228863 31.390127,78.100415 31.23559,77.940572 31.0736,77.800665 30.722518,77.49744 30.329214,77.274692 30.079747,77.2378 c -0.01596,-0.0023 -0.04861,-0.0051 -0.07255,-0.006 -0.04829,-0.002 -0.06204,-0.0047 -0.07186,-0.01452 -0.01873,-0.01875 0.0095,-0.05466 0.07859,-0.10017 0.04968,-0.03272 0.109698,-0.06392 0.184522,-0.09596 0.174951,-0.07491 0.339654,-0.117029 0.50525,-0.12922 0.0372,-0.0027 0.13042,-0.0027 0.167908,-2.3e-5 0.177124,0.01287 0.345974,0.06395 0.508665,0.153811 0.216275,0.119464 0.426969,0.313361 0.620052,0.570622 0.209309,0.278879 0.324948,0.555778 0.355369,0.850938 0.0086,0.08317 0.0096,0.217096 0.0023,0.296427 -0.01896,0.206096 -0.06842,0.406357 -0.156663,0.634412 -0.01743,0.04506 -0.04811,0.118492 -0.06063,0.145163 -0.005,0.01076 -0.01838,0.0396 -0.02962,0.06411 -0.03798,0.08277 -0.09058,0.185875 -0.124772,0.244605 -0.01288,0.02211 -0.0399,0.06426 -0.04121,0.06426 -5.09e-4,0 -3.1e-4,-0.0023 4.31e-4,-0.005 z"
         id="path33" />
      <path
         style="fill:#ad7fa8;fill-opacity:1;stroke:#5c3566;stroke-width:0;stroke-linecap:round;stroke-linejoin:round;paint-order:markers stroke fill"
         d="m 31.908173,79.953542 c -0.0025,-3.92e-4 -0.0062,-0.0045 -0.0084,-0.0091 -0.01564,-0.03303 -0.01115,-0.156054 0.01111,-0.303663 l 0.0014,-0.0095 -3.11e-4,0.0081 c -4.31e-4,0.01033 -0.0022,0.07223 -0.0033,0.116164 -0.0012,0.04673 -0.0012,0.144972 -6.5e-5,0.156579 0.0011,0.01049 0.0013,0.01127 0.0034,0.01127 0.003,0 0.01157,-0.0076 0.01761,-0.01565 0.002,-0.0027 0.0022,-0.0027 0.0027,-0.0012 3.11e-4,7.82e-4 0.0011,0.0016 0.0018,0.0016 7.43e-4,0 7.5e-5,7.83e-4 -0.0016,0.002 -0.01285,0.0086 -0.02724,0.02446 -0.02853,0.03135 -2.07e-4,0.0012 -7.3e-5,0.0031 4.3e-4,0.0044 7.44e-4,0.002 0.0011,0.002 0.0033,0.0016 0.0065,-0.0012 0.02588,-0.01882 0.03454,-0.03166 l 0.0025,-0.0035 v 0.0023 c 0,0.0023 2.7e-5,0.0023 0.0015,0.0012 0.0026,-0.0023 0.0016,-3.91e-4 -0.004,0.0071 -0.01058,0.01468 -0.02189,0.02693 -0.02739,0.02974 -0.0018,7.82e-4 -0.0047,0.0016 -0.0066,0.0012 z"
         id="path34" />
      <path
         style="fill:#ad7fa8;fill-opacity:1;stroke:#5c3566;stroke-width:0;stroke-linecap:round;stroke-linejoin:round;paint-order:markers stroke fill"
         d="m 31.937041,79.897947 c -7e-6,-2.08e-4 0.0012,-0.002 0.0028,-0.0043 0.01366,-0.01929 0.03449,-0.05345 0.05545,-0.09099 0.0036,-0.0065 0.0067,-0.01178 0.0068,-0.01166 2.07e-4,2.08e-4 -2.07e-4,0.0012 -0.0083,0.01561 -0.02129,0.03835 -0.0391,0.06766 -0.05149,0.08474 -0.004,0.0055 -0.0052,0.007 -0.0052,0.0065 z"
         id="path35" />
      <path
         style="fill:#ad7fa8;fill-opacity:1;stroke:#5c3566;stroke-width:0;stroke-linecap:round;stroke-linejoin:round;paint-order:markers stroke fill"
         d="m 31.934609,79.908079 c 1.3e-5,-7.83e-4 0.0057,-0.0031 0.0077,-0.0031 l 0.0018,3.5e-5 -0.0023,3.92e-4 c -0.0013,3.13e-4 -0.0034,0.0012 -0.0048,0.002 -0.0015,7.83e-4 -0.0025,0.0012 -0.0025,7.83e-4 z"
         id="path36" />
      <path
         style="fill:#ad7fa8;fill-opacity:1;stroke:#5c3566;stroke-width:0;stroke-linecap:round;stroke-linejoin:round;paint-order:markers stroke fill"
         d=""
         id="path37" />
      <path
         style="fill:#ad7fa8;fill-opacity:1;stroke:#5c3566;stroke-width:0;stroke-linecap:round;stroke-linejoin:round;paint-order:markers stroke fill"
         d="m 36.240418,79.857125 c -0.0085,-0.0035 -0.0076,-0.02407 0.0025,-0.05826 0.01274,-0.04301 0.03649,-0.103582 0.09332,-0.238042 0.02993,-0.07081 0.04758,-0.113878 0.06753,-0.164738 0.193499,-0.493393 0.350362,-1.101776 0.431243,-1.672551 0.0037,-0.0261 0.0074,-0.05288 0.0083,-0.05949 l 0.0015,-0.01201 0.0037,-3.09e-4 c 0.002,-2.08e-4 0.0037,5.8e-5 0.0037,7.82e-4 -4e-6,0.0027 -0.01236,0.09749 -0.01723,0.131924 -0.06827,0.482169 -0.19274,0.976662 -0.370039,1.470059 -0.02746,0.07641 -0.05525,0.149851 -0.09415,0.24882 -0.06686,0.170096 -0.111178,0.292134 -0.111178,0.306128 0,0.0053 0.0038,0.0083 0.0098,0.0076 0.05288,-0.0059 0.32793,-0.279259 0.514367,-0.51109 0.05846,-0.07269 0.104683,-0.136006 0.154596,-0.211755 0.228476,-0.346739 0.402128,-0.776154 0.500057,-1.236565 0.01258,-0.05914 0.02772,-0.139606 0.03497,-0.185902 0.0035,-0.02219 0.0022,-0.02004 0.01133,-0.02004 h 0.0078 l -9.39e-4,0.006 c -0.0173,0.107332 -0.02565,0.152889 -0.04231,0.230802 -0.07661,0.358276 -0.200958,0.694011 -0.369676,0.998155 -0.123519,0.222666 -0.268809,0.425154 -0.435465,0.6069 -0.0458,0.04995 -0.101331,0.105598 -0.214027,0.214487 -0.11703,0.113076 -0.17237,0.156641 -0.189666,0.149315 z"
         id="path38" />
      <path
         style="fill:#ad7fa8;fill-opacity:1;stroke:#5c3566;stroke-width:0;stroke-linecap:round;stroke-linejoin:round;paint-order:markers stroke fill"
         d="m 37.479601,77.64002 c 0.0036,-0.01589 0.01049,-0.06405 0.01814,-0.126985 0.06535,-0.537498 0.01616,-1.037735 -0.140396,-1.42773 -0.124704,-0.310649 -0.355472,-0.593039 -0.632674,-0.774202 -0.114516,-0.07484 -0.330062,-0.174616 -0.486404,-0.225158 -0.05688,-0.01839 -0.08331,-0.02121 -0.08331,-0.0088 0,0.01 0.03802,0.06599 0.123899,0.182537 0.03811,0.05172 0.06842,0.09489 0.06736,0.09596 -0.002,0.002 -0.100875,-0.119663 -0.149204,-0.183645 -0.05191,-0.06872 -0.08004,-0.120836 -0.06523,-0.120836 0.03113,0 0.18711,0.04944 0.306895,0.09728 0.214239,0.08556 0.382697,0.192552 0.534844,0.339711 0.45588,0.440925 0.642593,1.164896 0.531082,2.05925 -0.01208,0.09691 -0.01331,0.102964 -0.02089,0.102964 -0.0043,0 -0.0057,-0.0035 -0.0041,-0.01029 z"
         id="path39" />
      <path
         style="fill:#ad7fa8;fill-opacity:1;stroke:#5c3566;stroke-width:0;stroke-linecap:round;stroke-linejoin:round;paint-order:markers stroke fill"
         d="m 36.873658,76.642492 c -0.02573,-0.182572 -0.101994,-0.440812 -0.19911,-0.674193 -0.07074,-0.16999 -0.14909,-0.325602 -0.231998,-0.46075 -0.03157,-0.05146 -0.07673,-0.118141 -0.104945,-0.154939 -0.0056,-0.0074 -0.01024,-0.01389 -0.01021,-0.01456 2.2e-5,-7.83e-4 0.004,0.0031 0.0087,0.0085 0.01,0.01111 0.01344,0.01111 0.0058,0 -0.0028,-0.0041 -0.0048,-0.0079 -0.0044,-0.0083 4.3e-4,-3.91e-4 0.0058,0.0064 0.01203,0.01507 0.137544,0.193464 0.246092,0.395905 0.345091,0.643581 0.09431,0.235953 0.142959,0.396092 0.169068,0.556553 0.0069,0.04211 0.01405,0.09853 0.01341,0.105101 -3.11e-4,0.0027 -0.0018,-0.0045 -0.0034,-0.01612 z"
         id="path40" />
      <path
         style="fill:#ad7fa8;fill-opacity:1;stroke:#5c3566;stroke-width:0;stroke-linecap:round;stroke-linejoin:round;paint-order:markers stroke fill"
         d="m 39.394803,82.118632 c -0.123362,-0.0061 -0.225033,-0.02152 -0.3535,-0.0537 -0.129404,-0.0324 -0.202792,-0.06025 -0.231386,-0.08781 -0.0093,-0.009 -0.01114,-0.01213 -0.01114,-0.01898 0,-0.01194 0.0087,-0.0209 0.03057,-0.03142 0.03365,-0.0162 0.08635,-0.02857 0.181076,-0.04242 0.05966,-0.0087 0.08947,-0.01413 0.127704,-0.02321 0.01361,-0.0031 0.02525,-0.0053 0.02588,-0.0047 0.0011,0.0012 -0.122209,0.03201 -0.189046,0.04742 -0.109137,0.0252 -0.146639,0.038 -0.156898,0.05367 -0.0047,0.0072 -0.0024,0.01127 0.01223,0.02098 0.05358,0.03557 0.254883,0.09544 0.367757,0.109386 0.07916,0.0098 0.156488,0.01346 0.282572,0.01342 0.213277,-3.5e-5 0.310181,-0.01025 0.472478,-0.04986 0.387698,-0.09459 0.778843,-0.300082 1.094072,-0.574778 0.07461,-0.06502 0.17136,-0.165399 0.239958,-0.248972 0.183826,-0.223942 0.335708,-0.505951 0.409731,-0.760767 0.05302,-0.182509 0.06273,-0.313662 0.03846,-0.519382 -0.02171,-0.184051 -0.06931,-0.429204 -0.111634,-0.574997 l -0.0078,-0.027 0.0059,7.82e-4 c 0.0054,7.83e-4 0.0067,0.0027 0.01368,0.02473 0.04431,0.137649 0.09079,0.375659 0.111238,0.569721 0.0098,0.09308 0.01155,0.124422 0.01158,0.20821 2.5e-5,0.08814 -0.0016,0.10818 -0.01502,0.18762 -0.06573,0.388461 -0.311674,0.805463 -0.667992,1.132572 -0.142848,0.131141 -0.298939,0.243149 -0.478098,0.343083 -0.04695,0.02618 -0.165481,0.08544 -0.212786,0.106369 -0.329896,0.145946 -0.674679,0.215676 -0.989573,0.20014 z"
         id="path41" />
      <path
         style="fill:#ad7fa8;fill-opacity:1;stroke:#5c3566;stroke-width:0;stroke-linecap:round;stroke-linejoin:round;paint-order:markers stroke fill"
         d="m 39.325019,81.807851 c 0.37617,-0.125259 0.820602,-0.356543 1.094645,-0.569663 0.187211,-0.14559 0.404372,-0.37813 0.593399,-0.635422 0.276373,-0.376184 0.475683,-0.763392 0.53397,-1.037368 0.0056,-0.02622 0.0064,-0.02849 0.0052,-0.01487 -0.0096,0.112728 -0.06607,0.264454 -0.185009,0.496661 -0.153226,0.299159 -0.376594,0.621606 -0.61882,0.893316 -0.04626,0.05189 -0.171043,0.177168 -0.213033,0.213876 -0.0903,0.07895 -0.212428,0.167188 -0.348925,0.252107 -0.250983,0.156148 -0.564054,0.307647 -0.793332,0.383909 -0.05209,0.01734 -0.12768,0.0402 -0.132331,0.04004 -0.0018,-6.2e-5 0.0271,-0.01021 0.06422,-0.02258 z"
         id="path42" />
      <path
         style="fill:#ad7fa8;fill-opacity:1;stroke:#5c3566;stroke-width:0;stroke-linecap:round;stroke-linejoin:round;paint-order:markers stroke fill"
         d="m 41.546435,79.34602 c -0.01052,-0.0342 -0.0148,-0.05998 -0.01371,-0.08264 9.39e-4,-0.02043 0.0057,-0.03268 0.01468,-0.03769 0.0145,-0.0081 0.03011,0.0053 0.04898,0.04227 0.01012,0.0198 0.0284,0.06513 0.03162,0.07837 8.22e-4,0.0031 7.43e-4,0.0035 -0.0013,0.0016 -0.0028,-0.0023 -0.01075,-0.0035 -0.01077,-0.002 -6e-6,7.82e-4 -0.0035,-0.0089 -0.0078,-0.02152 -0.01423,-0.04168 -0.02507,-0.06505 -0.0351,-0.07569 -0.0093,-0.0099 -0.01364,-0.0083 -0.017,0.0065 -0.0031,0.01362 -0.0044,0.03456 -0.0044,0.07063 1.8e-5,0.01964 -5.1e-5,0.03573 -1.03e-4,0.03573 -1.03e-4,-8e-6 -0.0023,-0.0071 -0.005,-0.01573 z"
         id="path43" />
    </g>
    <path
       d="m 72.601263,102.88755 q 0,0.37956 -0.30365,0.6832 -0.30364,0.28467 -0.72115,0.28467 -0.43649,0 -0.75912,-0.28467 -0.30364,-0.30364 -0.30364,-0.6832 v -7.89476 l -2.61893,5.38969 q -0.15183,0.30365 -0.41752,0.45547 -0.24671,0.13284 -0.56933,0.13284 -0.32262,0 -0.58831,-0.13284 -0.24671,-0.15182 -0.39853,-0.45547 l -2.59996,-5.38969 v 7.89476 q 0,0.37956 -0.32262,0.6832 -0.32262,0.28467 -0.75911,0.28467 -0.43649,0 -0.72116,-0.28467 -0.28467,-0.30364 -0.28467,-0.6832 V 91.1403 q 0,-0.43649 0.30365,-0.72115 0.30364,-0.30365 0.77809,-0.30365 0.74013,0 1.06275,0.60729 l 3.54885,7.32543 3.52987,-7.34441 q 0.1708,-0.32262 0.45546,-0.45546 0.28467,-0.13285 0.60729,-0.13285 0.45547,0 0.75911,0.30365 0.32263,0.28466 0.32263,0.72115 z"
       style="font-weight:500;font-size:40px;line-height:1.25;font-family:'Blogger Sans';-inkscape-font-specification:'Blogger Sans, Medium';white-space:pre;fill:#5c3466;fill-opacity:0.988235;stroke-width:0.474445"
       id="path1168" />
    <path
       d="m 78.541273,103.81746 q -0.94889,0 -1.67005,-0.26569 -0.70217,-0.26569 -1.1956,-0.72115 -0.47444,-0.47445 -0.72115,-1.10071 -0.24671,-0.64525 -0.24671,-1.3664 v -2.99849 q 0,-0.74014 0.24671,-1.3664 0.24671,-0.62627 0.72115,-1.08174 0.49343,-0.47444 1.1956,-0.74013 0.72116,-0.26569 1.67005,-0.26569 0.92991,0 1.65107,0.26569 0.72115,0.26569 1.1956,0.74013 0.49342,0.45547 0.74013,1.08174 0.24671,0.62626 0.24671,1.3664 v 2.99849 q 0,0.72115 -0.24671,1.3664 -0.24671,0.62626 -0.74013,1.10071 -0.47445,0.45546 -1.1956,0.72115 -0.72116,0.26569 -1.65107,0.26569 z m 0,-1.80289 q 0.89196,0 1.32844,-0.43649 0.45547,-0.43649 0.45547,-1.21457 v -3.01747 q 0,-0.75911 -0.45547,-1.1956 -0.43648,-0.43649 -1.32844,-0.43649 -0.89196,0 -1.34742,0.43649 -0.43649,0.43649 -0.43649,1.1956 v 3.01747 q 0,0.77808 0.43649,1.21457 0.45546,0.43649 1.34742,0.43649 z"
       style="font-weight:500;font-size:40px;line-height:1.25;font-family:'Blogger Sans';-inkscape-font-specification:'Blogger Sans, Medium';white-space:pre;fill:#5c3466;fill-opacity:0.988235;stroke-width:0.474445"
       id="path1170" />
    <path
       d="m 84.139713,96.7767 q 0,-1.29048 0.83502,-2.06857 0.854,-0.77809 2.52404,-0.77809 0.41752,0 0.89196,0.0759 0.49342,0.0569 0.89196,0.20875 0.41751,0.15183 0.6832,0.41752 0.26568,0.26568 0.26568,0.6832 0,0.37955 -0.22773,0.58831 -0.22773,0.18977 -0.60729,0.18977 -0.22773,0 -0.41751,-0.0569 -0.1708,-0.0759 -0.37955,-0.15182 -0.20876,-0.0759 -0.47445,-0.13285 -0.24671,-0.0759 -0.62627,-0.0759 -0.1708,0 -0.41751,0.038 -0.22773,0.019 -0.43649,0.11387 -0.20875,0.0949 -0.36057,0.28466 -0.13285,0.1708 -0.13285,0.47445 0,0.47444 0.32262,0.74013 0.3416,0.26569 0.81605,0.47445 0.49342,0.18977 1.06275,0.39853 0.58832,0.18978 1.06276,0.5124 0.49342,0.32262 0.81604,0.854 0.34161,0.5124 0.34161,1.3664 0,1.32844 -0.87298,2.10653 -0.87298,0.75911 -2.58098,0.75911 -0.39854,0 -0.94889,-0.0569 -0.53138,-0.0569 -1.00582,-0.18978 -0.47445,-0.15182 -0.81605,-0.37955 -0.32262,-0.24671 -0.32262,-0.62627 0,-0.13284 0.038,-0.32262 0.0569,-0.18978 0.1708,-0.3416 0.13284,-0.15182 0.32262,-0.22773 0.20876,-0.0949 0.53138,-0.019 0.26569,0.0569 0.79707,0.24671 0.55035,0.18978 1.15764,0.18978 0.64525,0 1.08173,-0.28467 0.43649,-0.30364 0.43649,-0.81605 0,-0.43648 -0.3416,-0.6832 -0.32262,-0.26568 -0.81604,-0.45546 -0.47445,-0.18978 -1.06276,-0.36058 -0.56933,-0.18978 -1.06275,-0.5124 -0.47445,-0.32262 -0.81605,-0.83502 -0.32262,-0.5124 -0.32262,-1.34743 z"
       style="font-weight:500;font-size:40px;line-height:1.25;font-family:'Blogger Sans';-inkscape-font-specification:'Blogger Sans, Medium';white-space:pre;fill:#5c3466;fill-opacity:0.988235;stroke-width:0.474445"
       id="path1172" />
    <path
       d="m 92.413963,92.12715 q 0,-0.39854 0.26569,-0.66422 0.26569,-0.28467 0.75911,-0.28467 0.49343,0 0.75911,0.28467 0.26569,0.28466 0.26569,0.66422 v 2.35324 h 1.68903 q 0.39853,0 0.6832,0.26569 0.28466,0.26569 0.28466,0.66422 0,0.37956 -0.28466,0.64525 -0.28467,0.26569 -0.6832,0.26569 h -1.68903 v 3.32111 q 0,0.62627 0.038,1.06276 0.0379,0.43648 0.1708,0.70217 0.15183,0.26569 0.39854,0.39854 0.24671,0.11386 0.6832,0.11386 0.0949,0 0.18977,0 0.0949,-0.019 0.15183,-0.019 0.60729,0 0.92991,0.18977 0.3416,0.1708 0.3416,0.66423 0,0.32262 -0.13285,0.53137 -0.11386,0.18978 -0.32262,0.30365 -0.20875,0.0949 -0.47444,0.11387 -0.24671,0.0379 -0.53138,0.0379 -1.04378,0 -1.72698,-0.24671 -0.66422,-0.26569 -1.06275,-0.75911 -0.39854,-0.49342 -0.55036,-1.23356 -0.15182,-0.75911 -0.15182,-1.72698 z"
       style="font-weight:500;font-size:40px;line-height:1.25;font-family:'Blogger Sans';-inkscape-font-specification:'Blogger Sans, Medium';white-space:pre;fill:#5c3466;fill-opacity:0.988235;stroke-width:0.474445"
       id="path1174" />
    <path
       d="m 100.38462,103.81746 q -0.22773,0 -0.493417,-0.0759 -0.26569,-0.0569 -0.49342,-0.26569 -0.20876,-0.22773 -0.36058,-0.64524 -0.15182,-0.41751 -0.15182,-1.10071 V 90.8936 q 0,-0.37955 0.28466,-0.66422 0.30365,-0.28467 0.74014,-0.28467 0.436487,0 0.721147,0.28467 0.30365,0.26569 0.30365,0.66422 v 10.72245 q 0,0.30364 0.038,0.47444 0.038,0.15183 0.22773,0.36058 0.0949,0.0949 0.1708,0.20876 0.0759,0.0949 0.0759,0.30364 0,0.39854 -0.28467,0.62627 -0.28466,0.22773 -0.77808,0.22773 z"
       style="font-weight:500;font-size:40px;line-height:1.25;font-family:'Blogger Sans';-inkscape-font-specification:'Blogger Sans, Medium';white-space:pre;fill:#5c3466;fill-opacity:0.988235;stroke-width:0.474445"
       id="path1176" />
    <path
       d="m 108.0706,102.35617 q -0.36058,1.11969 -0.72115,2.06858 -0.3416,0.94889 -0.81605,1.63209 -0.47444,0.6832 -1.15764,1.06276 -0.66423,0.39853 -1.67005,0.39853 -0.45547,0 -0.75911,-0.26569 -0.28467,-0.26569 -0.28467,-0.66422 0,-0.3416 0.24671,-0.62627 0.26569,-0.26569 0.72116,-0.30364 0.75911,0 1.17662,-0.55036 0.43649,-0.53138 0.83503,-1.72698 l -2.97952,-8.12249 q -0.038,-0.0949 -0.0569,-0.18978 0,-0.11386 0,-0.18977 0,-0.37956 0.28467,-0.62627 0.30365,-0.26569 0.74013,-0.26569 0.28467,0 0.55036,0.1708 0.26569,0.15182 0.37956,0.47445 l 0.1708,0.5124 q 0.49342,1.44231 0.96786,2.86564 0.47445,1.42333 0.94889,2.9036 0.43649,-1.61311 0.87298,-3.15031 0.43649,-1.55618 0.92991,-3.13133 0.0949,-0.32263 0.37956,-0.47445 0.30364,-0.1708 0.58831,-0.1708 0.37955,0 0.70218,0.26569 0.32262,0.24671 0.32262,0.6832 0,0.15182 -0.0569,0.28467 z"
       style="font-weight:500;font-size:40px;line-height:1.25;font-family:'Blogger Sans';-inkscape-font-specification:'Blogger Sans, Medium';white-space:pre;fill:#5c3466;fill-opacity:0.988235;stroke-width:0.474445"
       id="path1178" />
    <path
       d="m 120.7857,102.8496 q 0,0.39853 -0.30365,0.70217 -0.30364,0.30365 -0.74013,0.30365 -0.41751,0 -0.74013,-0.30365 -0.30365,-0.30364 -0.30365,-0.70217 v -4.89627 h -4.6116 v 4.89627 q 0,0.39853 -0.30364,0.70217 -0.30365,0.30365 -0.74014,0.30365 -0.43649,0 -0.74013,-0.30365 -0.30365,-0.30364 -0.30365,-0.70217 V 91.10235 q 0,-0.39854 0.30365,-0.6832 0.30364,-0.30365 0.74013,-0.30365 0.43649,0 0.74014,0.30365 0.30364,0.28466 0.30364,0.6832 v 4.89627 h 4.6116 v -4.89627 q 0,-0.39854 0.30365,-0.6832 0.32262,-0.30365 0.74013,-0.30365 0.41751,0 0.72116,0.30365 0.32262,0.28466 0.32262,0.6832 z"
       style="font-weight:500;font-size:40px;line-height:1.25;font-family:'Blogger Sans';-inkscape-font-specification:'Blogger Sans, Medium';white-space:pre;fill:#5c3466;fill-opacity:0.988235;stroke-width:0.474445"
       id="path1180" />
    <path
       d="m 127.90231,97.34604 q 0,-1.67005 -1.74596,-1.67005 -0.37956,0 -0.62627,0.0759 -0.24671,0.0759 -0.49342,0.1708 l -0.36058,0.15183 q -0.18978,0.0949 -0.49342,0.0949 -0.41751,0 -0.60729,-0.26569 -0.1708,-0.26569 -0.1708,-0.56934 0,-0.37955 0.24671,-0.64524 0.24671,-0.26569 0.66422,-0.43649 0.41752,-0.1708 0.94889,-0.24671 0.53138,-0.0759 1.08174,-0.0759 1.93573,0 2.77075,0.98684 0.83503,0.98685 0.83503,2.88463 v 3.85249 q 0,0.36057 0.13284,0.47444 0.13284,0.0949 0.3416,0.13284 0.56933,0.11387 0.56933,0.6832 0,0.79707 -1.11969,0.79707 -0.98684,0 -1.51822,-0.854 -1.06275,0.91093 -2.58098,0.91093 -1.55617,0 -2.35324,-0.79706 -0.77809,-0.79707 -0.77809,-2.12551 v -0.0569 q 0,-2.86564 3.54884,-2.86564 0.87298,0 1.70801,0.22773 z m -1.65107,2.16347 q -0.49342,0 -0.81605,0.11386 -0.30364,0.0949 -0.47444,0.28467 -0.1708,0.1708 -0.22773,0.41751 -0.0569,0.24671 -0.0569,0.5124 v 0.0569 q 0,0.56934 0.30365,0.89196 0.32262,0.30364 1.11969,0.30364 0.49342,0 0.92991,-0.15182 0.43649,-0.15182 0.87298,-0.5124 v -1.708 q -0.41752,-0.0949 -0.85401,-0.15182 -0.43648,-0.0569 -0.79706,-0.0569 z"
       style="font-weight:500;font-size:40px;line-height:1.25;font-family:'Blogger Sans';-inkscape-font-specification:'Blogger Sans, Medium';white-space:pre;fill:#5c3466;fill-opacity:0.988235;stroke-width:0.474445"
       id="path1182" />
    <path
       d="m 136.89776,95.90373 q -0.30365,0 -0.56934,0 -0.24671,0 -0.49342,0.038 -0.22773,0.038 -0.49342,0.13285 -0.24671,0.0949 -0.55036,0.26569 0.019,0.13284 0.019,0.24671 0.019,0.0949 0.019,0.18977 v 6.0729 q 0,0.41751 -0.30365,0.70217 -0.28466,0.26569 -0.72115,0.26569 -0.43649,0 -0.74014,-0.26569 -0.28466,-0.28466 -0.28466,-0.70217 v -6.0729 q 0,-0.39853 -0.0569,-0.64524 -0.0569,-0.24671 -0.20875,-0.45547 -0.0949,-0.11386 -0.15182,-0.22773 -0.038,-0.11387 -0.038,-0.28467 0,-0.39853 0.28467,-0.64524 0.30364,-0.24671 0.70217,-0.24671 0.26569,0 0.47445,0.15182 0.22773,0.15182 0.39853,0.39853 0.64525,-0.37955 1.30947,-0.58831 0.6832,-0.22773 1.17662,-0.22773 0.72116,0 0.98685,0.26569 0.28466,0.26569 0.28466,0.66422 0,0.45547 -0.30364,0.74013 -0.30365,0.26569 -0.74013,0.22774 z"
       style="font-weight:500;font-size:40px;line-height:1.25;font-family:'Blogger Sans';-inkscape-font-specification:'Blogger Sans, Medium';white-space:pre;fill:#5c3466;fill-opacity:0.988235;stroke-width:0.474445"
       id="path1184" />
    <path
       d="m 150.23909,97.27013 q 0,-0.64525 -0.36057,-1.08174 -0.36058,-0.45546 -1.06276,-0.45546 -0.49342,0 -0.96787,0.22773 -0.45546,0.22773 -0.83502,0.60729 0.038,0.15182 0.0569,0.32262 0.019,0.1708 0.019,0.3416 v 5.61743 q 0,0.39853 -0.26569,0.6832 -0.24671,0.26568 -0.75911,0.26568 -0.5124,0 -0.77809,-0.26568 -0.24671,-0.28467 -0.24671,-0.6832 v -5.19992 q 0,-0.41751 -0.0569,-0.75911 -0.038,-0.36058 -0.18978,-0.60729 -0.13284,-0.26569 -0.37955,-0.39853 -0.24672,-0.15182 -0.66423,-0.15182 -0.49342,0 -0.98684,0.18977 -0.49342,0.1708 -0.91094,0.43649 0.019,0.0949 0.019,0.20876 0.019,0.0949 0.019,0.18978 v 6.09187 q 0,0.39853 -0.26569,0.6832 -0.24671,0.26568 -0.75911,0.26568 -0.5124,0 -0.77809,-0.26568 -0.24671,-0.28467 -0.24671,-0.6832 v -6.09187 q 0,-0.30365 -0.019,-0.47445 -0.019,-0.18978 -0.0569,-0.28466 -0.038,-0.11387 -0.0949,-0.1708 -0.038,-0.0569 -0.0759,-0.13285 -0.11387,-0.1708 -0.1708,-0.28467 -0.0569,-0.11386 -0.0569,-0.26568 0,-0.39854 0.28467,-0.64525 0.28467,-0.24671 0.6832,-0.24671 0.28467,0 0.49342,0.15182 0.22774,0.13285 0.37956,0.36058 0.64524,-0.39853 1.30947,-0.60729 0.6832,-0.22773 1.3664,-0.22773 0.6832,0 1.21458,0.22773 0.55035,0.22773 0.98684,0.66422 0.6832,-0.43649 1.34742,-0.66422 0.66423,-0.22773 1.46129,-0.22773 1.61311,0 2.50507,0.91093 0.89196,0.91093 0.89196,2.3912 v 5.61743 q 0,0.39853 -0.26569,0.6832 -0.24671,0.26568 -0.75912,0.26568 -0.5124,0 -0.77808,-0.26568 -0.24672,-0.28467 -0.24672,-0.6832 z"
       style="font-weight:500;font-size:40px;line-height:1.25;font-family:'Blogger Sans';-inkscape-font-specification:'Blogger Sans, Medium';white-space:pre;fill:#5c3466;fill-opacity:0.988235;stroke-width:0.474445"
       id="path1186" />
    <path
       d="m 156.42582,103.81746 q -0.22773,0 -0.49342,-0.0759 -0.26569,-0.0569 -0.49342,-0.26569 -0.20876,-0.22773 -0.36058,-0.64524 -0.15182,-0.41751 -0.15182,-1.10071 V 90.8936 q 0,-0.37955 0.28467,-0.66422 0.30364,-0.28467 0.74013,-0.28467 0.43649,0 0.72115,0.28467 0.30365,0.26569 0.30365,0.66422 v 10.72245 q 0,0.30364 0.0379,0.47444 0.038,0.15183 0.22774,0.36058 0.0949,0.0949 0.1708,0.20876 0.0759,0.0949 0.0759,0.30364 0,0.39854 -0.28467,0.62627 -0.28466,0.22773 -0.77809,0.22773 z"
       style="font-weight:500;font-size:40px;line-height:1.25;font-family:'Blogger Sans';-inkscape-font-specification:'Blogger Sans, Medium';white-space:pre;fill:#5c3466;fill-opacity:0.988235;stroke-width:0.474445"
       id="path1188" />
    <path
       d="m 162.91621,99.92702 q -0.39854,0 -0.81605,-0.019 -0.41751,-0.038 -0.87298,-0.11387 v 0.87298 q 0,0.64525 0.43649,1.0248 0.43649,0.37956 1.34743,0.37956 0.53137,0 0.94888,-0.13285 0.41752,-0.13284 0.89196,-0.3416 0.038,-0.0379 0.13285,-0.0569 0.11386,-0.038 0.28466,-0.038 0.49342,0 0.70218,0.28467 0.22773,0.28467 0.22773,0.56933 0,0.43649 -0.37955,0.72116 -0.36058,0.26569 -0.89196,0.43649 -0.5124,0.1708 -1.10071,0.22773 -0.56933,0.0759 -0.98684,0.0759 -0.87298,0 -1.55618,-0.24671 -0.6832,-0.24671 -1.15765,-0.6832 -0.45546,-0.43649 -0.70218,-1.0248 -0.24671,-0.60729 -0.24671,-1.29049 v -3.35907 q 0,-0.70217 0.24671,-1.29049 0.24672,-0.60728 0.72116,-1.04377 0.47444,-0.43649 1.17662,-0.6832 0.70218,-0.26569 1.61311,-0.26569 1.72698,0 2.58098,0.87298 0.854,0.854 0.854,2.27733 0,1.34742 -0.81604,2.10653 -0.81605,0.74014 -2.63791,0.74014 z m 1.42333,-2.9036 q 0,-0.75912 -0.37956,-1.08174 -0.36057,-0.32262 -1.06275,-0.32262 -0.79707,0 -1.23356,0.39853 -0.43649,0.39854 -0.43649,1.08174 v 1.11969 q 0.49343,0.0569 0.96787,0.0949 0.49342,0.019 0.70218,0.019 0.81604,0 1.11969,-0.3416 0.32262,-0.36058 0.32262,-0.96786 z"
       style="font-weight:500;font-size:40px;line-height:1.25;font-family:'Blogger Sans';-inkscape-font-specification:'Blogger Sans, Medium';white-space:pre;fill:#5c3466;fill-opacity:0.988235;stroke-width:0.474445"
       id="path1190" />
    <path
       d="m 168.02118,96.7767 q 0,-1.29048 0.83503,-2.06857 0.854,-0.77809 2.52404,-0.77809 0.41751,0 0.89196,0.0759 0.49342,0.0569 0.89195,0.20875 0.41751,0.15183 0.6832,0.41752 0.26569,0.26568 0.26569,0.6832 0,0.37955 -0.22773,0.58831 -0.22774,0.18977 -0.60729,0.18977 -0.22773,0 -0.41751,-0.0569 -0.1708,-0.0759 -0.37956,-0.15182 -0.20875,-0.0759 -0.47444,-0.13285 -0.24671,-0.0759 -0.62627,-0.0759 -0.1708,0 -0.41751,0.038 -0.22773,0.019 -0.43649,0.11387 -0.20876,0.0949 -0.36058,0.28466 -0.13284,0.1708 -0.13284,0.47445 0,0.47444 0.32262,0.74013 0.3416,0.26569 0.81605,0.47445 0.49342,0.18977 1.06275,0.39853 0.58831,0.18978 1.06276,0.5124 0.49342,0.32262 0.81604,0.854 0.3416,0.5124 0.3416,1.3664 0,1.32844 -0.87298,2.10653 -0.87297,0.75911 -2.58097,0.75911 -0.39854,0 -0.94889,-0.0569 -0.53138,-0.0569 -1.00583,-0.18978 -0.47444,-0.15182 -0.81604,-0.37955 -0.32262,-0.24671 -0.32262,-0.62627 0,-0.13284 0.0379,-0.32262 0.0569,-0.18978 0.1708,-0.3416 0.13285,-0.15182 0.32262,-0.22773 0.20876,-0.0949 0.53138,-0.019 0.26569,0.0569 0.79707,0.24671 0.55035,0.18978 1.15764,0.18978 0.64525,0 1.08174,-0.28467 0.43649,-0.30364 0.43649,-0.81605 0,-0.43648 -0.3416,-0.6832 -0.32263,-0.26568 -0.81605,-0.45546 -0.47444,-0.18978 -1.06275,-0.36058 -0.56934,-0.18978 -1.06276,-0.5124 -0.47444,-0.32262 -0.81604,-0.83502 -0.32263,-0.5124 -0.32263,-1.34743 z"
       style="font-weight:500;font-size:40px;line-height:1.25;font-family:'Blogger Sans';-inkscape-font-specification:'Blogger Sans, Medium';white-space:pre;fill:#5c3466;fill-opacity:0.988235;stroke-width:0.474445"
       id="path1192" />
    <path
       d="m 176.04876,96.7767 q 0,-1.29048 0.83502,-2.06857 0.854,-0.77809 2.52404,-0.77809 0.41752,0 0.89196,0.0759 0.49342,0.0569 0.89196,0.20875 0.41751,0.15183 0.6832,0.41752 0.26569,0.26568 0.26569,0.6832 0,0.37955 -0.22774,0.58831 -0.22773,0.18977 -0.60729,0.18977 -0.22773,0 -0.41751,-0.0569 -0.1708,-0.0759 -0.37955,-0.15182 -0.20876,-0.0759 -0.47445,-0.13285 -0.24671,-0.0759 -0.62627,-0.0759 -0.1708,0 -0.41751,0.038 -0.22773,0.019 -0.43649,0.11387 -0.20875,0.0949 -0.36057,0.28466 -0.13285,0.1708 -0.13285,0.47445 0,0.47444 0.32262,0.74013 0.3416,0.26569 0.81605,0.47445 0.49342,0.18977 1.06275,0.39853 0.58832,0.18978 1.06276,0.5124 0.49342,0.32262 0.81605,0.854 0.3416,0.5124 0.3416,1.3664 0,1.32844 -0.87298,2.10653 -0.87298,0.75911 -2.58098,0.75911 -0.39853,0 -0.94889,-0.0569 -0.53138,-0.0569 -1.00582,-0.18978 -0.47445,-0.15182 -0.81605,-0.37955 -0.32262,-0.24671 -0.32262,-0.62627 0,-0.13284 0.038,-0.32262 0.0569,-0.18978 0.1708,-0.3416 0.13284,-0.15182 0.32262,-0.22773 0.20875,-0.0949 0.53138,-0.019 0.26569,0.0569 0.79706,0.24671 0.55036,0.18978 1.15765,0.18978 0.64524,0 1.08173,-0.28467 0.43649,-0.30364 0.43649,-0.81605 0,-0.43648 -0.3416,-0.6832 -0.32262,-0.26568 -0.81604,-0.45546 -0.47445,-0.18978 -1.06276,-0.36058 -0.56933,-0.18978 -1.06276,-0.5124 -0.47444,-0.32262 -0.81604,-0.83502 -0.32262,-0.5124 -0.32262,-1.34743 z"
       style="font-weight:500;font-size:40px;line-height:1.25;font-family:'Blogger Sans';-inkscape-font-specification:'Blogger Sans, Medium';white-space:pre;fill:#5c3466;fill-opacity:0.988235;stroke-width:0.474445"
       id="path1194" />
    <path
       style="fill:#2e3436;fill-opacity:1;stroke:#5c3566;stroke-width:0;stroke-linecap:round;stroke-linejoin:round;paint-order:markers stroke fill"
       d="M 11.281104,98.943529 C 10.692136,98.908909 10.140656,98.793687 9.6337296,98.599341 7.8029509,97.897454 6.0890417,96.568843 4.7885071,94.843358 3.72067,93.426604 2.9201389,91.759203 2.4432761,89.95855 2.1660623,88.911779 2.1690893,88.747777 2.4846606,87.716342 2.6243632,87.259729 2.7405992,86.965437 2.9140598,86.629168 3.1600211,86.152349 3.3842341,85.835691 3.722943,85.486774 c 0.6900114,-0.710808 1.4919941,-1.085536 2.4969343,-1.166698 0.7192748,-0.05809 1.7070411,0.09052 2.7492177,0.413617 2.898456,0.898588 6.104922,3.017853 7.64003,5.049561 0.695639,0.920675 1.154816,1.861979 1.335533,2.737818 0.140474,0.680807 0.160124,1.604266 0.04381,2.059038 -0.18068,0.706453 -0.90845,1.670978 -1.952686,2.587927 -0.596904,0.524144 -1.421146,1.09105 -1.908655,1.312754 -0.750922,0.341496 -1.854916,0.520996 -2.846026,0.462738 z m 0.710522,-0.167013 c 1.607316,-0.08104 2.392092,-0.370257 3.552535,-1.309213 0.555413,-0.449405 1.206671,-1.076422 1.509081,-1.45291 0.770035,-0.958663 1.013296,-1.873782 0.832819,-3.132966 -0.301894,-2.106309 -1.847758,-4.140893 -4.441933,-5.84624 -0.698554,-0.459212 -1.2683,-0.782981 -2.112974,-1.20074 -1.6575167,-0.819773 -2.7304985,-1.194126 -3.8537938,-1.34455 -0.3939473,-0.05276 -1.3864371,-0.05254 -1.6716454,3.69e-4 -1.079726,0.200285 -1.8966825,0.751479 -2.5325995,1.708724 -0.4412702,0.664243 -0.8374766,1.708342 -0.9044417,2.383421 -0.043575,0.439282 0.016998,0.858115 0.2337657,1.616375 0.9258425,3.238628 2.8318068,5.857969 5.4288924,7.460853 0.5663491,0.349542 1.5352426,0.835834 1.9590392,0.983249 0.1797951,0.06254 0.4118251,0.118776 0.5800341,0.140578 0.128621,0.01667 1.041263,0.01221 1.421221,-0.007 z"
       id="path2"
       transform="matrix(0.26458333,0,0,0.26458333,42.151896,76.760854)" />
    <path
       style="fill:#2e3436;fill-opacity:1;stroke:#5c3566;stroke-width:0;stroke-linecap:round;stroke-linejoin:round;paint-order:markers stroke fill"
       d="M 11.531351,99.125336 C 10.102175,99.037237 8.4470842,98.359773 6.9668577,97.25699 6.520558,96.924493 6.2206949,96.663538 5.794358,96.236628 5.356078,95.797759 5.1865027,95.602873 4.8253346,95.122968 3.7020599,93.63041 3.0724139,92.410942 2.5360889,90.689269 2.203918,89.622956 2.1100454,89.059581 2.1708201,88.497111 c 0.1112801,-1.029898 0.7746443,-2.440209 1.5251856,-3.24254 0.8116652,-0.867672 2.1382974,-1.221141 3.751325,-0.999505 1.4983096,0.205874 3.2463163,0.884407 5.0796233,1.971785 1.342282,0.79614 2.444654,1.626265 3.319821,2.499942 0.76563,0.764326 1.287818,1.455562 1.679145,2.222732 0.32668,0.640436 0.508679,1.187697 0.616523,1.853855 0.04467,0.275923 0.05077,1.299482 0.0094,1.569515 -0.106291,0.693006 -0.345118,1.111095 -1.126447,1.971941 -1.534561,1.690736 -3.019684,2.582023 -4.5831,2.75052 -0.22055,0.02377 -0.736279,0.04074 -0.910896,0.02998 z m 0.610601,-0.168748 c 1.015967,-0.07155 1.772598,-0.293772 2.497335,-0.73347 1.136057,-0.689247 2.290359,-1.757937 2.910565,-2.694694 0.437587,-0.66093 0.524291,-0.953879 0.525685,-1.77614 8.84e-4,-0.521354 -0.02143,-0.770115 -0.107725,-1.201183 C 17.760344,91.514795 17.20999,90.457716 16.32619,89.397998 15.969672,88.970516 15.253418,88.280581 14.703334,87.834774 12.407922,85.974495 9.5047793,84.61399 7.2271139,84.33118 6.8601045,84.28561 6.2283588,84.284764 5.932077,84.329446 c -1.4690539,0.221549 -2.588021,1.159951 -3.2319633,2.71043 -0.1426631,0.343503 -0.3604326,1.051416 -0.4390394,1.427205 -0.053984,0.258077 -0.046901,0.589322 0.019351,0.904958 0.1340801,0.638787 0.4534219,1.673827 0.7183288,2.328225 0.5581767,1.37886 1.2619541,2.562893 2.18356,3.673616 0.298606,0.359881 1.0960091,1.160417 1.444209,1.449883 0.9652534,0.802436 2.0044771,1.422358 3.0229757,1.803278 0.7461082,0.279046 1.6022272,0.39224 2.4924532,0.329547 z"
       id="path3"
       transform="matrix(0.26458333,0,0,0.26458333,42.151896,76.760854)" />
  </g>
</svg>
