<?xml version="1.0" encoding="UTF-8"?>
<svg id="svg22" width="1e3" height="159" version="1.1" viewBox="0 0 1e3 159" xml:space="preserve" xmlns="http://www.w3.org/2000/svg">
<g id="SIEMENS" transform="matrix(.8733 0 0 .8733 56 11.151)">
	<g id="g19" clip-rule="evenodd" fill="#099" fill-rule="evenodd">
		<path id="path5" d="m3.086 152.54v-30.077c17.119 5.388 32.267 8.082 45.444 8.082 18.193 0 27.291-4.809 27.291-14.42 0-3.583-1.324-6.594-3.978-9.032-2.714-2.586-9.665-6.171-20.835-10.764-20.042-8.241-33.111-15.269-39.19-21.082-7.879-7.673-11.818-17.349-11.818-29.042 0-15.058 5.74-26.535 17.212-34.422 11.345-7.818 26.118-11.723 44.342-11.723 10.041 0 24.574 1.848 43.583 5.549v28.933c-14.144-5.65-27.273-8.469-39.403-8.469-17.081 0-25.621 4.69-25.621 14.091 0 3.514 1.72 6.38 5.165 8.602 2.865 1.798 10.759 5.596 23.665 11.406 18.583 8.253 30.954 15.427 37.118 21.529 7.314 7.238 10.978 16.604 10.978 28.084 0 16.501-7.177 29.088-21.521 37.761-11.621 7.033-26.69 10.535-45.198 10.535-15.63 0-31.378-1.841-47.234-5.541z"/>
		<polygon id="polygon7" points="183.6 2.704 183.6 155 141.06 155 141.06 2.704"/>
		<polygon id="polygon9" points="331.72 2.704 331.72 30.25 263.62 30.25 263.62 64.639 322.9 64.639 322.9 89.765 263.62 89.765 263.62 125.91 333.48 125.91 333.48 155 222.62 155 222.62 2.704"/>
		<polygon id="polygon11" points="461.39 156.55 435.02 156.55 391.22 47.171 391.22 155 361.25 155 361.25 2.704 416.4 2.704 454.72 100.02 494 2.704 546.39 2.704 546.39 155 506.06 155 506.06 47.171"/>
		<polygon id="polygon13" points="694.51 2.704 694.51 30.25 626.42 30.25 626.42 64.639 685.7 64.639 685.7 89.765 626.42 89.765 626.42 125.91 696.28 125.91 696.28 155 585.41 155 585.41 2.704"/>
		<polygon id="polygon15" points="773.58 2.704 825.88 104.66 825.88 2.704 855.85 2.704 855.85 155 807.94 155 754.25 51.678 754.25 155 724.27 155 724.27 2.704"/>
		<path id="path17" d="m886.05 152.54v-30.077c16.974 5.388 32.12 8.082 45.452 8.082 18.195 0 27.282-4.809 27.282-14.42 0-3.583-1.289-6.594-3.854-9.032-2.728-2.586-9.708-6.171-20.945-10.764-19.982-8.173-33.064-15.198-39.199-21.082-7.875-7.605-11.807-17.317-11.807-29.146 0-14.993 5.726-26.432 17.21-34.319 11.328-7.818 26.118-11.723 44.344-11.723 10.247 0 23.525 1.627 39.81 4.896l3.761 0.653v28.933c-14.146-5.65-27.313-8.469-39.508-8.469-17.016 0-25.503 4.69-25.503 14.091 0 3.514 1.711 6.38 5.147 8.602 2.73 1.729 10.656 5.529 23.778 11.406 18.442 8.253 30.787 15.427 37.005 21.529 7.325 7.238 10.98 16.604 10.98 28.084 0 16.501-7.135 29.088-21.406 37.761-11.689 7.033-26.796 10.535-45.301 10.535-15.647 1e-3 -31.402-1.84-47.246-5.54z"/>
	</g>
</g>
</svg>